
DisplayName "Tartarus (Northern Sabasa)"



EVENT   1
 PAGE   1
  250(bytes(0x04,0x08,0x6f,0x3a,0x0c,0x52,0x50,0x47,0x3a,0x3a,0x53,0x45,0x08,0x3a,0x0a,0x40,0x6e,0x61,0x6d,0x65,0x49,0x22,0x09,0x4d,0x6f,0x76,0x65,0x06,0x3a,0x06,0x45,0x54,0x3a,0x0b,0x40,0x70,0x69,0x74,0x63,0x68,0x69,0x69,0x3a,0x0c,0x40,0x76,0x6f,0x6c,0x75,0x6d,0x65,0x69,0x55))
  TeleportPlayer(0,427,13,1,0,0)
  0()



EVENT   2
 PAGE   1
  250(bytes(0x04,0x08,0x6f,0x3a,0x0c,0x52,0x50,0x47,0x3a,0x3a,0x53,0x45,0x08,0x3a,0x0a,0x40,0x6e,0x61,0x6d,0x65,0x49,0x22,0x09,0x4d,0x6f,0x76,0x65,0x06,0x3a,0x06,0x45,0x54,0x3a,0x0b,0x40,0x70,0x69,0x74,0x63,0x68,0x69,0x69,0x3a,0x0c,0x40,0x76,0x6f,0x6c,0x75,0x6d,0x65,0x69,0x55))
  TeleportPlayer(0,2,148,238,8,0)
  0()



EVENT   3
 PAGE   1
  250(bytes(0x04,0x08,0x6f,0x3a,0x0c,0x52,0x50,0x47,0x3a,0x3a,0x53,0x45,0x08,0x3a,0x0a,0x40,0x6e,0x61,0x6d,0x65,0x49,0x22,0x09,0x4d,0x6f,0x76,0x65,0x06,0x3a,0x06,0x45,0x54,0x3a,0x0b,0x40,0x70,0x69,0x74,0x63,0x68,0x69,0x69,0x3a,0x0c,0x40,0x76,0x6f,0x6c,0x75,0x6d,0x65,0x69,0x55))
  TeleportPlayer(0,2,148,238,8,0)
  0()



EVENT   4
 PAGE   1
  250(bytes(0x04,0x08,0x6f,0x3a,0x0c,0x52,0x50,0x47,0x3a,0x3a,0x53,0x45,0x08,0x3a,0x0a,0x40,0x6e,0x61,0x6d,0x65,0x49,0x22,0x09,0x4d,0x6f,0x76,0x65,0x06,0x3a,0x06,0x45,0x54,0x3a,0x0b,0x40,0x70,0x69,0x74,0x63,0x68,0x69,0x69,0x3a,0x0c,0x40,0x76,0x6f,0x6c,0x75,0x6d,0x65,0x69,0x55))
  TeleportPlayer(0,2,148,238,8,0)
  0()



EVENT   5
 PAGE   1
  250(bytes(0x04,0x08,0x6f,0x3a,0x0c,0x52,0x50,0x47,0x3a,0x3a,0x53,0x45,0x08,0x3a,0x0a,0x40,0x6e,0x61,0x6d,0x65,0x49,0x22,0x09,0x4d,0x6f,0x76,0x65,0x06,0x3a,0x06,0x45,0x54,0x3a,0x0b,0x40,0x70,0x69,0x74,0x63,0x68,0x69,0x69,0x3a,0x0c,0x40,0x76,0x6f,0x6c,0x75,0x6d,0x65,0x69,0x55))
  TeleportPlayer(0,2,148,238,8,0)
  0()



EVENT   6
 PAGE   1
  217()
  If(0,6,0)
   ShowMessageFace("sonia_fc2",2,0,2,1)
   ShowMessage("\\n<Sonya>What's this? It's way more than just a pile of soil. Can we squeeze our way around it...?")
   0()
  Else()
   ShowMessageFace("ruka_fc1",0,0,2,2)
   ShowMessage("\\n<Luka>What is this? It isn't just a pile of soil. Can we squeeze our way around it...?")
   0()
  EndIf()
  ShowMessageFace("",0,0,2,3)
  ShowMessage("The lump of soil gets up and forcibly blocks us from passing!")
  If(0,6,0)
   ShowMessageFace("sonia_fc3",2,0,2,4)
   ShowMessage("\\n<Sonya>We got blocked by a moving pile of soil!")
   0()
  Else()
   ShowMessageFace("ruka_fc1",0,0,2,5)
   ShowMessage("\\n<Luka>Wahh, it moved by itself!")
   0()
  EndIf()
  If(4,62,0)
   ShowMessageFace("gob_fc1",3,0,2,6)
   ShowMessage("\\n<Gob>Then I'll... Wahh! It pushed me away!")
   0()
  EndIf()
  If(4,129,0)
   ShowMessageFace("brunhild_fc1",2,0,2,7)
   ShowMessage("\\n<Hild>Hild will charge... Guohh! Charge failed...")
   0()
  EndIf()
  If(1,1001,0,17,2)
   If(0,4,0)
    ShowMessageFace("alice_fc5",2,0,2,8)
    ShowMessage("\\n<Alice>It seems that powerful magic was embedded into the soil. I doubt we'll be able to force our way past it.")
    ShowMessageFace("alice_fc5",0,0,2,9)
    ShowMessage("\\n<Alice>Gnome is the spirit who manipulates earth, though. If we had her help, we might be able to get by.")
    ShowMessageFace("alice_fc5",3,0,2,10)
    ShowMessage("\\n<Alice>...I feel like we're being led through a specific chain of events. I don't like this...")
    0()
   EndIf()
   If(0,5,0)
    ShowMessageFace("iriasu_fc4",2,0,2,11)
    ShowMessage("\\n<Ilias>It was embedded with powerful magic to stop us from entering. Getting past it via force is most likely impossible.")
    ShowMessageFace("iriasu_fc4",2,0,2,12)
    ShowMessage("\\n<Ilias>Gnome is the spirit who manipulates earth, though. If we had her help, we might be able to disperse this pile of soil.")
    ShowMessageFace("iriasu_fc4",2,0,2,13)
    ShowMessage("\\n<Ilias>...I feel like we're being led through a specific chain of events. This does not please me one bit...")
    0()
   EndIf()
   EndEventProcessing()
   0()
  EndIf()
  If(1,1001,0,18,0)
   If(0,4,0)
    ShowMessageFace("alice_fc5",0,0,2,14)
    ShowMessage("\\n<Alice>If we had Gnome's help, we might be able to get by.")
    0()
   EndIf()
   If(0,5,0)
    ShowMessageFace("iriasu_fc4",0,0,2,15)
    ShowMessage("\\n<Ilias>If we had Gnome's help, we might be able to disperse this pile of soil.")
    0()
   EndIf()
   ShowMessageFace("gnome_fc1",0,0,2,16)
   ShowMessage("\\n<Gnome>......")
   250(bytes(0x04,0x08,0x6f,0x3a,0x0c,0x52,0x50,0x47,0x3a,0x3a,0x53,0x45,0x08,0x3a,0x0a,0x40,0x6e,0x61,0x6d,0x65,0x49,0x22,0x0b,0x4d,0x61,0x67,0x69,0x63,0x31,0x06,0x3a,0x06,0x45,0x54,0x3a,0x0b,0x40,0x70,0x69,0x74,0x63,0x68,0x69,0x69,0x3a,0x0c,0x40,0x76,0x6f,0x6c,0x75,0x6d,0x65,0x69,0x55))
   ChangeSwitch(2100,2100,0)
   ShowMessageFace("",0,0,2,17)
   ShowMessage("Gnome points with her finger, and the pile of soil immediately collapses!")
   If(4,12,0)
    ShowMessageFace("sylph_fc1",0,0,2,18)
    ShowMessage("\\n<Sylph>Gnomeey, so amaaazing!")
    0()
   EndIf()
   If(0,4,0)
    ShowMessageFace("alice_fc5",0,0,2,19)
    ShowMessage("\\n<Alice>There, now we can enter the Tartarus rift.\n...Hmm?")
    0()
   EndIf()
   If(0,5,0)
    ShowMessageFace("iriasu_fc4",0,0,2,20)
    ShowMessage("\\n<Ilias>We can now enter the Tartarus rift.\n...Hmm?")
    0()
   EndIf()
   205(-1,bytes(0x04,0x08,0x6f,0x3a,0x13,0x52,0x50,0x47,0x3a,0x3a,0x4d,0x6f,0x76,0x65,0x52,0x6f,0x75,0x74,0x65,0x09,0x3a,0x0c,0x40,0x72,0x65,0x70,0x65,0x61,0x74,0x46,0x3a,0x0f,0x40,0x73,0x6b,0x69,0x70,0x70,0x61,0x62,0x6c,0x65,0x46,0x3a,0x0a,0x40,0x77,0x61,0x69,0x74,0x54,0x3a,0x0a,0x40,0x6c,0x69,0x73,0x74,0x5b,0x07,0x6f,0x3a,0x15,0x52,0x50,0x47,0x3a,0x3a,0x4d,0x6f,0x76,0x65,0x43,0x6f,0x6d,0x6d,0x61,0x6e,0x64,0x07,0x3a,0x0a,0x40,0x63,0x6f,0x64,0x65,0x69,0x18,0x3a,0x10,0x40,0x70,0x61,0x72,0x61,0x6d,0x65,0x74,0x65,0x72,0x73,0x5b,0x00,0x6f,0x3b,0x0a,0x07,0x3b,0x0b,0x69,0x00,0x3b,0x0c,0x5b,0x00))
   241(bytes(0x04,0x08,0x6f,0x3a,0x0d,0x52,0x50,0x47,0x3a,0x3a,0x42,0x47,0x4d,0x08,0x3a,0x0a,0x40,0x6e,0x61,0x6d,0x65,0x49,0x22,0x0f,0x73,0x68,0x69,0x72,0x6f,0x75,0x73,0x61,0x67,0x69,0x06,0x3a,0x06,0x45,0x54,0x3a,0x0c,0x40,0x76,0x6f,0x6c,0x75,0x6d,0x65,0x69,0x69,0x3a,0x0b,0x40,0x70,0x69,0x74,0x63,0x68,0x69,0x69))
   ChangeSwitch(2029,2029,0)
   250(bytes(0x04,0x08,0x6f,0x3a,0x0c,0x52,0x50,0x47,0x3a,0x3a,0x53,0x45,0x08,0x3a,0x0a,0x40,0x6e,0x61,0x6d,0x65,0x49,0x22,0x10,0x6d,0x6f,0x6e,0x5f,0x74,0x61,0x6d,0x61,0x6d,0x6f,0x32,0x06,0x3a,0x06,0x45,0x54,0x3a,0x0b,0x40,0x70,0x69,0x74,0x63,0x68,0x69,0x69,0x3a,0x0c,0x40,0x76,0x6f,0x6c,0x75,0x6d,0x65,0x69,0x55))
   205(10,bytes(0x04,0x08,0x6f,0x3a,0x13,0x52,0x50,0x47,0x3a,0x3a,0x4d,0x6f,0x76,0x65,0x52,0x6f,0x75,0x74,0x65,0x09,0x3a,0x0c,0x40,0x72,0x65,0x70,0x65,0x61,0x74,0x46,0x3a,0x0f,0x40,0x73,0x6b,0x69,0x70,0x70,0x61,0x62,0x6c,0x65,0x46,0x3a,0x0a,0x40,0x77,0x61,0x69,0x74,0x54,0x3a,0x0a,0x40,0x6c,0x69,0x73,0x74,0x5b,0x07,0x6f,0x3a,0x15,0x52,0x50,0x47,0x3a,0x3a,0x4d,0x6f,0x76,0x65,0x43,0x6f,0x6d,0x6d,0x61,0x6e,0x64,0x07,0x3a,0x0a,0x40,0x63,0x6f,0x64,0x65,0x69,0x13,0x3a,0x10,0x40,0x70,0x61,0x72,0x61,0x6d,0x65,0x74,0x65,0x72,0x73,0x5b,0x07,0x69,0x00,0x69,0x00,0x6f,0x3b,0x0a,0x07,0x3b,0x0b,0x69,0x00,0x3b,0x0c,0x5b,0x00))
   Wait(15)
   PictureDisplay(5,"80_sirousagi_st01",0,0,0,0,100,100,0,0)
   PictureMove(5,null,0,0,0,0,100,100,255,0,60,true)
   ShowMessageFace("sirousagi_fc1",0,0,2,21)
   ShowMessage("\\n<White Rabbit>Ta-daah!")
   If(4,53,0)
    ShowMessageFace("slime_fc1",2,0,2,22)
    ShowMessage("\\n<Lime>Wah! It's the rabbit again!")
    0()
   EndIf()
   If(0,4,0)
    ShowMessageFace("alice_fc5",2,0,2,23)
    ShowMessage("\\n<Alice>You again?! What were you up to this time?")
    0()
   EndIf()
   If(0,5,0)
    ShowMessageFace("iriasu_fc4",7,0,2,24)
    ShowMessage("\\n<Ilias>So you show yourself once again, White Rabbit! Was this your latest way of harassing us?!")
    0()
   EndIf()
   ShowMessageFace("sirousagi_fc1",0,0,2,25)
   ShowMessage("\\n<White Rabbit>I'm not harassing you, honest! A chuuni with a scythe was chasing me, so I made this!")
   ShowMessageFace("sirousagi_fc1",0,0,2,26)
   ShowMessage("\\n<White Rabbit>Can't something be done about him? Geez, I'd like to complain to his parents...")
   If(0,4,0)
    ShowMessageFace("alice_fc5",2,0,2,27)
    ShowMessage("\\n<Alice>Argh, enough with your babble! You'll pay if you plan to keep getting in our way!")
    0()
   EndIf()
   If(0,5,0)
    ShowMessageFace("iriasu_fc4",7,0,2,28)
    ShowMessage("\\n<Ilias>Enough with your jokes! If you get in our way any further, I shall destroy you right here!")
    0()
   EndIf()
   ShowMessageFace("sirousagi_fc1",0,0,2,29)
   ShowMessage("\\n<White Rabbit>I'm not getting in your way or anything. I just wanted you to have Gnome with you before you went any further.")
   ShowMessageFace("sirousagi_fc1",0,0,2,30)
   ShowMessage("\\n<White Rabbit>Now, go and see... the chaos-covered world ahead.")
   ShowMessageFace("sirousagi_fc1",0,0,2,31)
   ShowMessage("\\n<White Rabbit>Seeeeee ya later!")
   PictureClear(5)
   250(bytes(0x04,0x08,0x6f,0x3a,0x0c,0x52,0x50,0x47,0x3a,0x3a,0x53,0x45,0x08,0x3a,0x0a,0x40,0x6e,0x61,0x6d,0x65,0x49,0x22,0x10,0x6d,0x6f,0x6e,0x5f,0x74,0x61,0x6d,0x61,0x6d,0x6f,0x32,0x06,0x3a,0x06,0x45,0x54,0x3a,0x0b,0x40,0x70,0x69,0x74,0x63,0x68,0x69,0x69,0x3a,0x0c,0x40,0x76,0x6f,0x6c,0x75,0x6d,0x65,0x69,0x55))
   205(10,bytes(0x04,0x08,0x6f,0x3a,0x13,0x52,0x50,0x47,0x3a,0x3a,0x4d,0x6f,0x76,0x65,0x52,0x6f,0x75,0x74,0x65,0x09,0x3a,0x0c,0x40,0x72,0x65,0x70,0x65,0x61,0x74,0x46,0x3a,0x0f,0x40,0x73,0x6b,0x69,0x70,0x70,0x61,0x62,0x6c,0x65,0x46,0x3a,0x0a,0x40,0x77,0x61,0x69,0x74,0x54,0x3a,0x0a,0x40,0x6c,0x69,0x73,0x74,0x5b,0x07,0x6f,0x3a,0x15,0x52,0x50,0x47,0x3a,0x3a,0x4d,0x6f,0x76,0x65,0x43,0x6f,0x6d,0x6d,0x61,0x6e,0x64,0x07,0x3a,0x0a,0x40,0x63,0x6f,0x64,0x65,0x69,0x13,0x3a,0x10,0x40,0x70,0x61,0x72,0x61,0x6d,0x65,0x74,0x65,0x72,0x73,0x5b,0x07,0x69,0x00,0x69,0x00,0x6f,0x3b,0x0a,0x07,0x3b,0x0b,0x69,0x00,0x3b,0x0c,0x5b,0x00))
   ChangeSwitch(2029,2029,1)
   241(bytes(0x04,0x08,0x6f,0x3a,0x0d,0x52,0x50,0x47,0x3a,0x3a,0x42,0x47,0x4d,0x08,0x3a,0x0a,0x40,0x6e,0x61,0x6d,0x65,0x49,0x22,0x0a,0x6f,0x6f,0x61,0x6e,0x61,0x06,0x3a,0x06,0x45,0x54,0x3a,0x0c,0x40,0x76,0x6f,0x6c,0x75,0x6d,0x65,0x69,0x69,0x3a,0x0b,0x40,0x70,0x69,0x74,0x63,0x68,0x69,0x69))
   If(0,4,0)
    ShowMessageFace("alice_fc5",6,0,2,32)
    ShowMessage("\\n<Alice>Ah, wait!\nGah... she ran away again.")
    0()
   EndIf()
   If(0,5,0)
    ShowMessageFace("iriasu_fc4",7,0,2,33)
    ShowMessage("\\n<Ilias>Ah, wait!\nDamn her, she escaped again.")
    0()
   EndIf()
   If(4,531,0)
    ShowMessageFace("saniria_fc2",0,0,2,34)
    ShowMessage("\\n<King of San Ilia>So that's the rumored rabbit... Quite the mysterious entity.")
    0()
   EndIf()
   If(4,129,0)
    ShowMessageFace("brunhild_fc1",0,0,2,35)
    ShowMessage("\\n<Hild>Energy level: undefined...\nReading contains imaginary numbers...")
    0()
   EndIf()
   If(0,6,0)
    ShowMessageFace("sonia_fc2",2,0,2,36)
    ShowMessage("\\n<Sonya>I wonder what awaits us down there. She sounded like it was really serious.")
    0()
   Else()
    ShowMessageFace("ruka_fc1",0,0,2,37)
    ShowMessage("\\n<Luka>I wonder what's ahead. She did sound pretty serious.")
    0()
   EndIf()
   If(0,4,0)
    ShowMessageFace("alice_fc5",2,0,2,38)
    ShowMessage("\\n<Alice>Hmph, she always talks like that! I bet it's just–")
    0()
   EndIf()
   If(0,5,0)
    ShowMessageFace("iriasu_fc4",7,0,2,39)
    ShowMessage("\\n<Ilias>Heavens, she's always spouting nonsense of some sort! Most likely it's just–")
    0()
   EndIf()
   241(bytes(0x04,0x08,0x6f,0x3a,0x0d,0x52,0x50,0x47,0x3a,0x3a,0x42,0x47,0x4d,0x08,0x3a,0x0a,0x40,0x6e,0x61,0x6d,0x65,0x49,0x22,0x0f,0x73,0x68,0x69,0x72,0x6f,0x75,0x73,0x61,0x67,0x69,0x06,0x3a,0x06,0x45,0x54,0x3a,0x0c,0x40,0x76,0x6f,0x6c,0x75,0x6d,0x65,0x69,0x69,0x3a,0x0b,0x40,0x70,0x69,0x74,0x63,0x68,0x69,0x69))
   ChangeSwitch(2029,2029,0)
   250(bytes(0x04,0x08,0x6f,0x3a,0x0c,0x52,0x50,0x47,0x3a,0x3a,0x53,0x45,0x08,0x3a,0x0a,0x40,0x6e,0x61,0x6d,0x65,0x49,0x22,0x10,0x6d,0x6f,0x6e,0x5f,0x74,0x61,0x6d,0x61,0x6d,0x6f,0x32,0x06,0x3a,0x06,0x45,0x54,0x3a,0x0b,0x40,0x70,0x69,0x74,0x63,0x68,0x69,0x69,0x3a,0x0c,0x40,0x76,0x6f,0x6c,0x75,0x6d,0x65,0x69,0x55))
   205(10,bytes(0x04,0x08,0x6f,0x3a,0x13,0x52,0x50,0x47,0x3a,0x3a,0x4d,0x6f,0x76,0x65,0x52,0x6f,0x75,0x74,0x65,0x09,0x3a,0x0c,0x40,0x72,0x65,0x70,0x65,0x61,0x74,0x46,0x3a,0x0f,0x40,0x73,0x6b,0x69,0x70,0x70,0x61,0x62,0x6c,0x65,0x46,0x3a,0x0a,0x40,0x77,0x61,0x69,0x74,0x54,0x3a,0x0a,0x40,0x6c,0x69,0x73,0x74,0x5b,0x07,0x6f,0x3a,0x15,0x52,0x50,0x47,0x3a,0x3a,0x4d,0x6f,0x76,0x65,0x43,0x6f,0x6d,0x6d,0x61,0x6e,0x64,0x07,0x3a,0x0a,0x40,0x63,0x6f,0x64,0x65,0x69,0x13,0x3a,0x10,0x40,0x70,0x61,0x72,0x61,0x6d,0x65,0x74,0x65,0x72,0x73,0x5b,0x07,0x69,0x00,0x69,0x00,0x6f,0x3b,0x0a,0x07,0x3b,0x0b,0x69,0x00,0x3b,0x0c,0x5b,0x00))
   PictureDisplay(5,"80_sirousagi_st01",0,0,0,0,100,100,0,0)
   PictureMove(5,null,0,0,0,0,100,100,255,0,60,true)
   ShowMessageFace("sirousagi_fc1",0,0,2,40)
   ShowMessage("\\n<White Rabbit>Oh, right! I forgot!")
   If(0,6,0)
    ShowMessageFace("sonia_fc3",2,0,2,41)
    ShowMessage("\\n<Sonya>She's back!")
    0()
   Else()
    ShowMessageFace("ruka_fc1",0,0,2,42)
    ShowMessage("\\n<Luka>Wah, she's back!")
    0()
   EndIf()
   ShowMessageFace("sirousagi_fc1",0,0,2,43)
   ShowMessage("\\n<White Rabbit>Here, let me give you these! They're completely useless, but I've got to get rid of them somehow. So here you go!")
   250(bytes(0x04,0x08,0x6f,0x3a,0x0c,0x52,0x50,0x47,0x3a,0x3a,0x53,0x45,0x08,0x3a,0x0a,0x40,0x6e,0x61,0x6d,0x65,0x49,0x22,0x0a,0x49,0x74,0x65,0x6d,0x31,0x06,0x3a,0x06,0x45,0x54,0x3a,0x0b,0x40,0x70,0x69,0x74,0x63,0x68,0x69,0x69,0x3a,0x0c,0x40,0x76,0x6f,0x6c,0x75,0x6d,0x65,0x69,0x55))
   ChangeInventory_Item(522,0,0,1)
   ShowMessageFace("sirousagi_fc1",0,0,2,44)
   ShowMessage("\\n<White Rabbit>I stole them from him when we were going at it. 'Glasses, my glasses!' he kept yelling. What a riot!")
   If(0,6,0)
    ShowMessageFace("sonia_fc3",2,0,2,45)
    ShowMessage("\\n<Sonya>You made such a cool character say that?!")
    0()
   Else()
    ShowMessageFace("ruka_fc1",0,0,2,46)
    ShowMessage("\\n<Luka>Nero said that?")
    0()
   EndIf()
   ShowMessageFace("sirousagi_fc1",0,0,2,47)
   ShowMessage("\\n<White Rabbit>No, I lied. He didn't say anything of the sort. He actually ripped my head off in revenge.")
   ShowMessageFace("sirousagi_fc1",0,0,2,48)
   ShowMessage("\\n<White Rabbit>But no need to worry, as it grew back right away. Anyways, I'll be going before that chuuni assaults me again.")
   PictureClear(5)
   250(bytes(0x04,0x08,0x6f,0x3a,0x0c,0x52,0x50,0x47,0x3a,0x3a,0x53,0x45,0x08,0x3a,0x0a,0x40,0x6e,0x61,0x6d,0x65,0x49,0x22,0x10,0x6d,0x6f,0x6e,0x5f,0x74,0x61,0x6d,0x61,0x6d,0x6f,0x32,0x06,0x3a,0x06,0x45,0x54,0x3a,0x0b,0x40,0x70,0x69,0x74,0x63,0x68,0x69,0x69,0x3a,0x0c,0x40,0x76,0x6f,0x6c,0x75,0x6d,0x65,0x69,0x55))
   205(10,bytes(0x04,0x08,0x6f,0x3a,0x13,0x52,0x50,0x47,0x3a,0x3a,0x4d,0x6f,0x76,0x65,0x52,0x6f,0x75,0x74,0x65,0x09,0x3a,0x0c,0x40,0x72,0x65,0x70,0x65,0x61,0x74,0x46,0x3a,0x0f,0x40,0x73,0x6b,0x69,0x70,0x70,0x61,0x62,0x6c,0x65,0x46,0x3a,0x0a,0x40,0x77,0x61,0x69,0x74,0x54,0x3a,0x0a,0x40,0x6c,0x69,0x73,0x74,0x5b,0x07,0x6f,0x3a,0x15,0x52,0x50,0x47,0x3a,0x3a,0x4d,0x6f,0x76,0x65,0x43,0x6f,0x6d,0x6d,0x61,0x6e,0x64,0x07,0x3a,0x0a,0x40,0x63,0x6f,0x64,0x65,0x69,0x13,0x3a,0x10,0x40,0x70,0x61,0x72,0x61,0x6d,0x65,0x74,0x65,0x72,0x73,0x5b,0x07,0x69,0x00,0x69,0x00,0x6f,0x3b,0x0a,0x07,0x3b,0x0b,0x69,0x00,0x3b,0x0c,0x5b,0x00))
   ChangeSwitch(2029,2029,1)
   241(bytes(0x04,0x08,0x6f,0x3a,0x0d,0x52,0x50,0x47,0x3a,0x3a,0x42,0x47,0x4d,0x08,0x3a,0x0a,0x40,0x6e,0x61,0x6d,0x65,0x49,0x22,0x0a,0x6f,0x6f,0x61,0x6e,0x61,0x06,0x3a,0x06,0x45,0x54,0x3a,0x0c,0x40,0x76,0x6f,0x6c,0x75,0x6d,0x65,0x69,0x69,0x3a,0x0b,0x40,0x70,0x69,0x74,0x63,0x68,0x69,0x69))
   If(0,4,0)
    ShowMessageFace("alice_fc5",3,0,2,49)
    ShowMessage("\\n<Alice>What on earth...")
    0()
   EndIf()
   If(0,5,0)
    ShowMessageFace("iriasu_fc4",2,0,2,50)
    ShowMessage("\\n<Ilias>What on earth is she...")
    0()
   EndIf()
   If(4,79,0)
    ShowMessageFace("nuruko_fc1",2,0,2,51)
    ShowMessage("\\n<Nuruko>Kyu...")
    0()
   EndIf()
   205(-1,bytes(0x04,0x08,0x6f,0x3a,0x13,0x52,0x50,0x47,0x3a,0x3a,0x4d,0x6f,0x76,0x65,0x52,0x6f,0x75,0x74,0x65,0x09,0x3a,0x0c,0x40,0x72,0x65,0x70,0x65,0x61,0x74,0x46,0x3a,0x0f,0x40,0x73,0x6b,0x69,0x70,0x70,0x61,0x62,0x6c,0x65,0x46,0x3a,0x0a,0x40,0x77,0x61,0x69,0x74,0x54,0x3a,0x0a,0x40,0x6c,0x69,0x73,0x74,0x5b,0x07,0x6f,0x3a,0x15,0x52,0x50,0x47,0x3a,0x3a,0x4d,0x6f,0x76,0x65,0x43,0x6f,0x6d,0x6d,0x61,0x6e,0x64,0x07,0x3a,0x0a,0x40,0x63,0x6f,0x64,0x65,0x69,0x15,0x3a,0x10,0x40,0x70,0x61,0x72,0x61,0x6d,0x65,0x74,0x65,0x72,0x73,0x5b,0x00,0x6f,0x3b,0x0a,0x07,0x3b,0x0b,0x69,0x00,0x3b,0x0c,0x5b,0x00))
   ShowMessageFace("ruka_fc1",0,0,2,52)
   ShowMessage("\\n<Luka>Let's get back to what we came here for and enter the rift!")
   ShowMessageFace("",0,0,2,53)
   ShowMessage("What lurks below, and what kind of alternate world its connected to--")
   ShowMessageFace("",0,0,2,54)
   ShowMessage("Those are things we have to see with our own eyes.")
   0()
  EndIf()
  0()
 PAGE   2
  // condition: switch 2100 is ON
  0()



EVENT   7
 PAGE   1
  If(0,2100,1)
   ShowMessageFace("",0,0,2,1)
   ShowMessage("\\n<Student>A strange rabbit set up a pile of soil in front of the entrance! Because of that we can no longer enter the Tartarus rift.")
   ShowMessageFace("",0,0,2,2)
   ShowMessage("\\n<Student>How did she make the pile of soil, you ask? With a scoop. While humming.")
   If(0,4,0)
    ShowMessageFace("alice_fc5",3,0,2,3)
    ShowMessage("\\n<Alice>Damn White Rabbit... Once again her actions are completely inexplicable.")
    0()
   EndIf()
   If(0,5,0)
    ShowMessageFace("iriasu_fc4",2,0,2,4)
    ShowMessage("\\n<Ilias>White Rabbit... What is she plotting this time...")
    0()
   EndIf()
   0()
  Else()
   ShowMessageFace("",0,0,2,5)
   ShowMessage("\\n<Student>With the pile of soil removed, we can resume our investigation. However, with so few guards around to escort us, we can't delve too deeply...")
   0()
  EndIf()
  0()



EVENT   8
 PAGE   1
  If(0,2100,1)
   ShowMessageFace("",0,0,2,1)
   ShowMessage("\\n<Scholar>What a disaster. We can't progress with our investigation like this...")
   0()
  Else()
   ShowMessageFace("",0,0,2,2)
   ShowMessage("\\n<Scholar>Research is something that progresses slowly. I understand my buddies' feelings, but being impatient won't net you results.")
   355("actor_label_jump")
   EndEventProcessing()
   DefineLabel("41")
   ShowMessageFace("stein_fc2",0,0,2,3)
   ShowMessage("\\n<Promestein>Exactly. If you lack the requisite patience, you are liable to overlook something important in your haste.")
   EndEventProcessing()
   0()
  EndIf()
  0()



EVENT   9
 PAGE   1
  ShowMessageFace("",0,0,2,1)
  ShowMessage("\\n<Scholar>As if I care about orders to return from the capital! This is a battle to avenge the king!")
  ShowMessageFace("",0,0,2,2)
  ShowMessage("\\n<Scholar>We will research this Tartarus until we reveal everything. That will be our farewell gift to the king who died during his visit!")
  355("actor_label_jump")
  EndEventProcessing()
  DefineLabel("529")
  ShowMessageFace("sara_fc1",4,0,2,3)
  ShowMessage("\\n<Sara>There is no need to force yourself. You aren't responsible for the king's death...")
  ShowMessageFace("",0,0,2,4)
  ShowMessage("\\n<Scholar>Your Majesty the Queen... No, I mean, Princess Sara. Regardless, I cannot leave my duty half-way and return home.")
  EndEventProcessing()
  0()



EVENT   10
 PAGE   1
  // condition: switch 2029 is ON
  0()



EVENT   11
 PAGE   1
  250(bytes(0x04,0x08,0x6f,0x3a,0x0c,0x52,0x50,0x47,0x3a,0x3a,0x53,0x45,0x08,0x3a,0x0a,0x40,0x6e,0x61,0x6d,0x65,0x49,0x22,0x0a,0x49,0x74,0x65,0x6d,0x31,0x06,0x3a,0x06,0x45,0x54,0x3a,0x0b,0x40,0x70,0x69,0x74,0x63,0x68,0x69,0x69,0x3a,0x0c,0x40,0x76,0x6f,0x6c,0x75,0x6d,0x65,0x69,0x55))
  ChangeSelfSwitch("A",0)
  ChangeInventory_Item(8,0,0,1)
  0()
 PAGE   2
  // condition: self-switch A is ON
  0()



EVENT   12
 PAGE   1
  // condition: variable 1028 >= 8
  // condition: party contains actor #529
  ChangeSelfSwitch("A",0)
  ShowMessageFace("sara_fc1",4,0,2,1)
  ShowMessage("\\n<Sara>Father...")
  If(0,6,0)
   ShowMessageFace("sonia_fc2",2,0,2,2)
   ShowMessage("\\n<Sonya>Ah, I see... This is where the previous King of Sabasa...")
   ShowMessageFace("sonia_fc2",2,0,2,3)
   ShowMessage("\\n<Sonya>Are you all right, Sara? If this is going to be too hard on you, you can wait for us in the Pocket Castle...")
   0()
  Else()
   ShowMessageFace("ruka_fc1",0,0,2,4)
   ShowMessage("\\n<Luka>...Sara, are you okay? If this is going to be too hard on you, you can wait for us in the Pocket Castle...")
   0()
  EndIf()
  ShowMessageFace("sara_fc1",1,0,2,5)
  ShowMessage("\\n<Sara>No, let me go with you. I wanted to visit the place my father died anyway.")
  ShowMessageFace("sara_fc1",4,0,2,6)
  ShowMessage("\\n<Sara>Besides, it might just be me refusing to accept reality, but... Father surely is...")
  If(0,4,0)
   ShowMessageFace("alice_fc5",3,0,2,7)
   ShowMessage("\\n<Alice>My mother disappeared in the vicinity of the Monster Continent's Tartarus rift. She was presumed dead for a long time, but has recently reappeared.")
   ShowMessageFace("alice_fc5",0,0,2,8)
   ShowMessage("\\n<Alice>I don't want to get your hopes up, but when it comes to Tartarus, anything is possible.")
   0()
  EndIf()
  ShowMessageFace("",0,0,2,9)
  ShowMessage("The King of Sabasa fell into a hole during his visit here. His corpse wasn't found, but...")
  ShowMessageFace("",0,0,2,10)
  ShowMessage("The circumstances of his disappearance were undeniably suspicious. The theories circulating on the street that he's still alive are also too credible to ignore.")
  ShowMessageFace("",0,0,2,11)
  ShowMessage("On top of that, we know that Tartarus is a tunnel leading to another world...")
  ShowMessageFace("sara_fc1",1,0,2,12)
  ShowMessage("\\n<Sara>I'm sorry, you don't need to worry about me. Come on, let's go!")
  0()
 PAGE   2
  // condition: self-switch A is ON
  0()
