﻿
DisplayName "Sabasa Castle 2F"



EVENT   1
 PAGE   1
  281(0)
  If(6,-1,2)
   250(bytes(0x04,0x08,0x6f,0x3a,0x0c,0x52,0x50,0x47,0x3a,0x3a,0x53,0x45,0x08,0x3a,0x0a,0x40,0x6e,0x61,0x6d,0x65,0x49,0x22,0x09,0x4d,0x6f,0x76,0x65,0x06,0x3a,0x06,0x45,0x54,0x3a,0x0b,0x40,0x70,0x69,0x74,0x63,0x68,0x69,0x69,0x3a,0x0c,0x40,0x76,0x6f,0x6c,0x75,0x6d,0x65,0x69,0x55))
   TeleportPlayer(0,377,60,17,0,0)
   0()
  EndIf()
  0()




EVENT   2
 PAGE   1
  281(0)
  If(6,-1,2)
   250(bytes(0x04,0x08,0x6f,0x3a,0x0c,0x52,0x50,0x47,0x3a,0x3a,0x53,0x45,0x08,0x3a,0x0a,0x40,0x6e,0x61,0x6d,0x65,0x49,0x22,0x09,0x4d,0x6f,0x76,0x65,0x06,0x3a,0x06,0x45,0x54,0x3a,0x0b,0x40,0x70,0x69,0x74,0x63,0x68,0x69,0x69,0x3a,0x0c,0x40,0x76,0x6f,0x6c,0x75,0x6d,0x65,0x69,0x55))
   TeleportPlayer(0,377,31,28,0,0)
   0()
  EndIf()
  If(1,1028,0,4,2)
   216(0)
   ChangeSwitch(100,100,1)
   ShowMessageFace("",0,0,2,1)
   ShowMessage("Luka rejoined his companions!")
   If(0,2115,1)
    ShowMessageFace("ruka_fc1",0,0,2,2)
    ShowMessage("\\n<Luka>Looks like I won't be talking with the queen after all.")
    If(0,4,0)
     ShowMessageFace("alice_fc5",6,0,2,3)
     ShowMessage("\\n<Alice>Then why did you even bother going in there?")
     0()
    EndIf()
    If(0,5,0)
     ShowMessageFace("iriasu_fc4",5,0,2,4)
     ShowMessage("\\n<Ilias>Then what did you intend to do?")
     0()
    EndIf()
    RunCommonEvent(303)
    0()
   Else()
    ShowMessageFace("ruka_fc1",0,0,2,5)
    ShowMessage("\\n<Luka>Her condition is worse than I expected. She was more interested in sex rather than actually talking to me.")
    If(0,4,0)
     ShowMessageFace("alice_fc5",3,0,2,6)
     ShowMessage("\\n<Alice>So trying to speak directly to the queen didn't work. We should ask people in the tavern if they know anything.")
     0()
    EndIf()
    If(0,5,0)
     ShowMessageFace("iriasu_fc4",2,0,2,7)
     ShowMessage("\\n<Ilias>As I expected, speaking directly to the queen was for naught. Let us go to the tavern instead and gather information on how to proceed next.")
     0()
    EndIf()
    0()
   EndIf()
   0()
  EndIf()
  0()




EVENT   3
 PAGE   1
  281(0)
  If(6,-1,2)
   250(bytes(0x04,0x08,0x6f,0x3a,0x0c,0x52,0x50,0x47,0x3a,0x3a,0x53,0x45,0x08,0x3a,0x0a,0x40,0x6e,0x61,0x6d,0x65,0x49,0x22,0x09,0x4d,0x6f,0x76,0x65,0x06,0x3a,0x06,0x45,0x54,0x3a,0x0b,0x40,0x70,0x69,0x74,0x63,0x68,0x69,0x69,0x3a,0x0c,0x40,0x76,0x6f,0x6c,0x75,0x6d,0x65,0x69,0x55))
   TeleportPlayer(0,377,31,28,0,0)
   0()
  EndIf()
  If(1,1028,0,4,2)
   216(0)
   ChangeSwitch(100,100,1)
   ShowMessageFace("",0,0,2,1)
   ShowMessage("Luka rejoined his companions!")
   If(0,2115,1)
    ShowMessageFace("ruka_fc1",0,0,2,2)
    ShowMessage("\\n<Luka>Looks like I won't be talking with the queen after all.")
    If(0,4,0)
     ShowMessageFace("alice_fc5",6,0,2,3)
     ShowMessage("\\n<Alice> Then why did you even bother going in there?")
     0()
    EndIf()
    If(0,5,0)
     ShowMessageFace("iriasu_fc4",5,0,2,4)
     ShowMessage("\\n<Ilias>Then what did you intend to do?")
     0()
    EndIf()
    RunCommonEvent(303)
    0()
   Else()
    ShowMessageFace("ruka_fc1",0,0,2,5)
    ShowMessage("\\n<Luka>Her condition is worse than I expected. She was more interested in sex rather than actually talking to me.")
    If(0,4,0)
     ShowMessageFace("alice_fc5",3,0,2,6)
     ShowMessage("\\n<Alice>So trying to speak directly to the queen didn't work. We should ask people in the tavern if they know anything.")
     0()
    EndIf()
    If(0,5,0)
     ShowMessageFace("iriasu_fc4",2,0,2,7)
     ShowMessage("\\n<Ilias>As I expected, speaking directly to the queen was for naught. Let us go to the tavern instead and gather information on how to proceed next.")
     0()
    EndIf()
    0()
   EndIf()
   0()
  EndIf()
  0()




EVENT   4
 PAGE   1
  281(0)
  If(6,-1,2)
   250(bytes(0x04,0x08,0x6f,0x3a,0x0c,0x52,0x50,0x47,0x3a,0x3a,0x53,0x45,0x08,0x3a,0x0a,0x40,0x6e,0x61,0x6d,0x65,0x49,0x22,0x09,0x4d,0x6f,0x76,0x65,0x06,0x3a,0x06,0x45,0x54,0x3a,0x0b,0x40,0x70,0x69,0x74,0x63,0x68,0x69,0x69,0x3a,0x0c,0x40,0x76,0x6f,0x6c,0x75,0x6d,0x65,0x69,0x55))
   TeleportPlayer(0,377,31,28,0,0)
   0()
  EndIf()
  If(1,1028,0,4,2)
   216(0)
   ChangeSwitch(100,100,1)
   ShowMessageFace("",0,0,2,1)
   ShowMessage("Luka rejoined his companions!")
   If(0,2115,1)
    ShowMessageFace("ruka_fc1",0,0,2,2)
    ShowMessage("\\n<Luka>Looks like I won't be talking with the queen after all.")
    If(0,4,0)
     ShowMessageFace("alice_fc5",6,0,2,3)
     ShowMessage("\\n<Alice>Then why did you even bother going in there?")
     0()
    EndIf()
    If(0,5,0)
     ShowMessageFace("iriasu_fc4",5,0,2,4)
     ShowMessage("\\n<Ilias>Then what did you intend to do?")
     0()
    EndIf()
    RunCommonEvent(303)
    0()
   Else()
    ShowMessageFace("ruka_fc1",0,0,2,5)
    ShowMessage("\\n<Luka>Her condition is worse than I expected. She was more interested in sex rather than actually talking to me.")
    If(0,4,0)
     ShowMessageFace("alice_fc5",3,0,2,6)
     ShowMessage("\\n<Alice>So trying to speak directly to the queen didn't work. We should ask people in the tavern if they know anything.")
     0()
    EndIf()
    If(0,5,0)
     ShowMessageFace("iriasu_fc4",2,0,2,7)
     ShowMessage("\\n<Ilias>As I expected, speaking directly to the queen was for naught. Let us go to the tavern instead and gather information on how to proceed next.")
     0()
    EndIf()
    0()
   EndIf()
   0()
  EndIf()
  0()




EVENT   5
 PAGE   1
  281(0)
  If(6,-1,2)
   250(bytes(0x04,0x08,0x6f,0x3a,0x0c,0x52,0x50,0x47,0x3a,0x3a,0x53,0x45,0x08,0x3a,0x0a,0x40,0x6e,0x61,0x6d,0x65,0x49,0x22,0x09,0x4d,0x6f,0x76,0x65,0x06,0x3a,0x06,0x45,0x54,0x3a,0x0b,0x40,0x70,0x69,0x74,0x63,0x68,0x69,0x69,0x3a,0x0c,0x40,0x76,0x6f,0x6c,0x75,0x6d,0x65,0x69,0x55))
   TeleportPlayer(0,377,60,17,0,0)
   0()
  EndIf()
  0()



EVENT   6
 PAGE   1
  281(0)
  If(6,-1,2)
   250(bytes(0x04,0x08,0x6f,0x3a,0x0c,0x52,0x50,0x47,0x3a,0x3a,0x53,0x45,0x08,0x3a,0x0a,0x40,0x6e,0x61,0x6d,0x65,0x49,0x22,0x09,0x4d,0x6f,0x76,0x65,0x06,0x3a,0x06,0x45,0x54,0x3a,0x0b,0x40,0x70,0x69,0x74,0x63,0x68,0x69,0x69,0x3a,0x0c,0x40,0x76,0x6f,0x6c,0x75,0x6d,0x65,0x69,0x55))
   TeleportPlayer(0,377,60,17,0,0)
   0()
  EndIf()
  0()



EVENT   7
 PAGE   1
  ChangeSwitch(2115,2115,0)
  PictureDisplay(5,"80_sara_st12",0,0,0,0,100,100,0,0)
  PictureMove(5,null,0,0,0,0,100,100,255,0,30,true)
  If(1,1028,0,4,2)
   If(2,"A",1)
    ShowMessageFace("sara_fc2",1,0,2,1)
    ShowMessage("\\n<Sara>Oh my... What does a traveler like you want from me? You must have heard of my reputation.")
    0()
   Else()
    ShowMessageFace("sara_fc2",1,0,2,2)
    ShowMessage("\\n<Sara>Oh dear, it's you again. So do you want me to suck your dick after all?")
    0()
   EndIf()
   PictureDisplay(5,"80_sara_st11",0,0,0,0,100,100,255,0)
   ShowMessageFace("sara_fc2",0,0,2,3)
   ShowMessage("\\n<Sara>Well then, pull down your pants. Show me your dick.")
   ShowMessageFace("ruka_fc1",0,0,2,4)
   ShowMessage("\\n<Luka>Eh...?!")
   PictureDisplay(5,"80_sara_st13",0,0,0,0,100,100,255,0)
   ShowMessageFace("sara_fc2",5,0,2,5)
   ShowMessage("\\n<Sara>I very well can't suck it unless you pull your pants down. Now then, hurry and take out your dick.")
   ShowChoices(strings("Talk with her","Pull down pants"),0)
   IfPlayerPicksChoice(0,null)
    If(2,"A",1)
     ShowMessageFace("ruka_fc1",0,0,2,6)
     ShowMessage("\\n<Luka>That's not why I came here! I want to talk to you!")
     ShowMessageFace("sara_fc2",5,0,2,7)
     ShowMessage("\\n<Sara>What a strange person. You'd prefer to talk over being sucked?")
     ShowMessageFace("sara_fc2",5,0,2,8)
     ShowMessage("\\n<Sara>Fine. Get out.")
     ShowMessageFace("ruka_fc1",0,0,2,9)
     ShowMessage("\\n<Luka>Wait a moment, I want to ask something.")
     PictureDisplay(5,"80_sara_st11",0,0,0,0,100,100,255,0)
     ShowMessageFace("sara_fc2",0,0,2,10)
     ShowMessage("\\n<Sara>Once you leave my room, tell this to the guard: 'Next time, bring a man who'll obediently whip out his dick.'")
     ChangeSelfSwitch("A",0)
     PictureClear(5)
     EndEventProcessing()
     0()
    Else()
     ShowMessageFace("ruka_fc1",0,0,2,11)
     ShowMessage("\\n<Luka>Like I said before, that's not why I came here!")
     ShowMessageFace("sara_fc2",5,0,2,12)
     ShowMessage("\\n<Sara>Fine. Get out. There will be no eyeing my goods at your leisure.")
     PictureClear(5)
     EndEventProcessing()
     0()
    EndIf()
    ChangeSelfSwitch("A",0)
    205(-1,bytes(0x04,0x08,0x6f,0x3a,0x13,0x52,0x50,0x47,0x3a,0x3a,0x4d,0x6f,0x76,0x65,0x52,0x6f,0x75,0x74,0x65,0x09,0x3a,0x0c,0x40,0x72,0x65,0x70,0x65,0x61,0x74,0x46,0x3a,0x0f,0x40,0x73,0x6b,0x69,0x70,0x70,0x61,0x62,0x6c,0x65,0x46,0x3a,0x0a,0x40,0x77,0x61,0x69,0x74,0x54,0x3a,0x0a,0x40,0x6c,0x69,0x73,0x74,0x5b,0x07,0x6f,0x3a,0x15,0x52,0x50,0x47,0x3a,0x3a,0x4d,0x6f,0x76,0x65,0x43,0x6f,0x6d,0x6d,0x61,0x6e,0x64,0x07,0x3a,0x0a,0x40,0x63,0x6f,0x64,0x65,0x69,0x15,0x3a,0x10,0x40,0x70,0x61,0x72,0x61,0x6d,0x65,0x74,0x65,0x72,0x73,0x5b,0x00,0x6f,0x3b,0x0a,0x07,0x3b,0x0b,0x69,0x00,0x3b,0x0c,0x5b,0x00))
    ShowMessageFace("ruka_fc1",0,0,2,13)
    ShowMessage("\\n<Luka>...")
    ShowMessageFace("",0,0,2,14)
    ShowMessage("It looks like talking with her will be even more difficult than I thought. I guess there's no choice but to leave for now.")
    0()
   IfPlayerPicksChoice(1,null)
    RunCommonEvent(7151)
    EndEventProcessing()
    0()
   404()
   0()
  EndIf()
  If(1,1028,0,5,0)
   ShowMessageFace("sara_fc2",1,0,2,15)
   ShowMessage("\\n<Sara>Oh my... What an imposing atmosphere. Do you want to fuck me violently?")
   If(0,6,0)
    ShowMessageFace("sonia_fc3",2,0,2,16)
    ShowMessage("\\n<Sonya>The first thing she says is something dirty?! She really has lost her sanity.")
    0()
   EndIf()
   ShowMessageFace("ruka_fc1",0,0,2,17)
   ShowMessage("\\n<Luka>Could you drink this blood, please? You'll return to your normal self if you do.")
   ShowMessageFace("sara_fc2",1,0,2,18)
   ShowMessage("\\n<Sara>The only thing I want to drink is a man's semen. I don't want some weird blood.")
   If(0,4,0)
    ShowMessageFace("alice_fc5",2,0,2,19)
    ShowMessage("\\n<Alice>Then we'll have to hold you down and make you drink it! Don't think poorly of us. This is for your own country's sake!")
    0()
   EndIf()
   If(0,5,0)
    ShowMessageFace("iriasu_fc4",0,0,2,20)
    ShowMessage("\\n<Ilias>In that case, we will restrain you and force you to drink it. It is for your own sake. You had better prepare to have your bones broken if you resist.")
    0()
   EndIf()
   ShowMessageFace("sara_fc2",1,0,2,21)
   ShowMessage("\\n<Sara>Ahaha... So you want to play violently with me?")
   250(bytes(0x04,0x08,0x6f,0x3a,0x0c,0x52,0x50,0x47,0x3a,0x3a,0x53,0x45,0x08,0x3a,0x0a,0x40,0x6e,0x61,0x6d,0x65,0x49,0x22,0x0e,0x6d,0x6f,0x6e,0x5f,0x70,0x6f,0x77,0x65,0x72,0x06,0x3a,0x06,0x45,0x54,0x3a,0x0b,0x40,0x70,0x69,0x74,0x63,0x68,0x69,0x69,0x3a,0x0c,0x40,0x76,0x6f,0x6c,0x75,0x6d,0x65,0x69,0x69))
   ShowMessageFace("",0,0,2,22)
   ShowMessage("Sara's magic grows! Her body gradually transforms in front of us.")
   241(bytes(0x04,0x08,0x6f,0x3a,0x0d,0x52,0x50,0x47,0x3a,0x3a,0x42,0x47,0x4d,0x08,0x3a,0x0a,0x40,0x6e,0x61,0x6d,0x65,0x49,0x22,0x0a,0x62,0x6f,0x73,0x73,0x30,0x06,0x3a,0x06,0x45,0x54,0x3a,0x0c,0x40,0x76,0x6f,0x6c,0x75,0x6d,0x65,0x69,0x69,0x3a,0x0b,0x40,0x70,0x69,0x74,0x63,0x68,0x69,0x69))
   PictureDisplay(5,"80_saraevil_st01",0,0,0,0,100,100,255,0)
   ShowMessageFace("sara_fc4",0,0,2,23)
   ShowMessage("\\n<Sara>I don't mind forcing myself on you, either. I'll send you all to heaven.")
   If(0,6,0)
    ShowMessageFace("sonia_fc3",7,0,2,24)
    ShowMessage("\\n<Sonya>Whoa! She turned into her monster form! What do we do, Luka?!")
    0()
   EndIf()
   ShowMessageFace("ruka_fc1",0,0,2,25)
   ShowMessage("\\n<Luka>We can't help her while she's like this! We'll have her drink Sphinx's blood after we defeat her!")
   ShowMessageFace("sara_fc4",0,0,2,26)
   ShowMessage("\\n<Sara>You want me to drink it thiiis muuuch? But I want to drink and gulp dooown your semen...")
   If(4,129,0)
    ShowMessageFace("brunhild_fc1",0,0,2,27)
    ShowMessage("\\n<Hild>Target confirmed... Initiate combat procedures.")
    0()
   EndIf()
   If(4,529,0)
    ShowMessageFace("sara_fc1",4,0,2,28)
    ShowMessage("\\n<Sara'>Ahh, what a horrible appearance! Let's defeat her quickly.")
    ShowMessageFace("sara_fc4",0,0,2,29)
    ShowMessage("\\n<Sara>Oh my, there's another me. I know how to satisfy you best of all.")
    0()
   EndIf()
   PictureClear(5)
   SetBattleBGM(bytes(0x04,0x08,0x6f,0x3a,0x0d,0x52,0x50,0x47,0x3a,0x3a,0x42,0x47,0x4d,0x08,0x3a,0x0a,0x40,0x6e,0x61,0x6d,0x65,0x49,0x22,0x0a,0x62,0x6f,0x73,0x73,0x31,0x06,0x3a,0x06,0x45,0x54,0x3a,0x0c,0x40,0x76,0x6f,0x6c,0x75,0x6d,0x65,0x69,0x69,0x3a,0x0b,0x40,0x70,0x69,0x74,0x63,0x68,0x69,0x69))
   ChangeSwitch(22,22,0)
   Battle(0,248,false,false)
   ChangeSwitch(22,22,1)
   SetBattleBGM(bytes(0x04,0x08,0x6f,0x3a,0x0d,0x52,0x50,0x47,0x3a,0x3a,0x42,0x47,0x4d,0x08,0x3a,0x0a,0x40,0x6e,0x61,0x6d,0x65,0x49,0x22,0x0b,0x62,0x61,0x74,0x74,0x6c,0x65,0x06,0x3a,0x06,0x45,0x54,0x3a,0x0c,0x40,0x76,0x6f,0x6c,0x75,0x6d,0x65,0x69,0x69,0x3a,0x0b,0x40,0x70,0x69,0x74,0x63,0x68,0x69,0x69))
   241(bytes(0x04,0x08,0x6f,0x3a,0x0d,0x52,0x50,0x47,0x3a,0x3a,0x42,0x47,0x4d,0x08,0x3a,0x0a,0x40,0x6e,0x61,0x6d,0x65,0x49,0x22,0x0a,0x6b,0x69,0x6b,0x69,0x32,0x06,0x3a,0x06,0x45,0x54,0x3a,0x0c,0x40,0x76,0x6f,0x6c,0x75,0x6d,0x65,0x69,0x69,0x3a,0x0b,0x40,0x70,0x69,0x74,0x63,0x68,0x69,0x69))
   PictureDisplay(5,"80_saraevil_st03",0,0,0,0,100,100,255,0)
   ShowMessageFace("sara_fc4",2,0,2,30)
   ShowMessage("\\n<Sara>I'm so tired...")
   If(4,62,0)
    ShowMessageFace("gob_fc1",0,0,2,31)
    ShowMessage("\\n<Gob>We did it! She's vulnerable!")
    0()
   EndIf()
   ShowMessageFace("ruka_fc1",0,0,2,32)
   ShowMessage("\\n<Luka>All right, now!")
   ChangeInventory_Item(520,1,0,1)
   ShowMessageFace("",0,0,2,33)
   ShowMessage("We pour the Sphinx Blood into Sara's mouth as she lies defeated!")
   ShowMessageFace("sara_fc4",2,0,2,34)
   ShowMessage("\\n<Sara>What...is this...? My power is...")
   ShowMessageFace("sara_fc4",2,0,2,35)
   ShowMessage("\\n<Sara>Aa-AAaAaaah...!")
   241(bytes(0x04,0x08,0x6f,0x3a,0x0d,0x52,0x50,0x47,0x3a,0x3a,0x42,0x47,0x4d,0x08,0x3a,0x0a,0x40,0x6e,0x61,0x6d,0x65,0x49,0x22,0x14,0x73,0x63,0x65,0x6e,0x65,0x5f,0x65,0x70,0x69,0x6c,0x6f,0x67,0x75,0x65,0x31,0x06,0x3a,0x06,0x45,0x54,0x3a,0x0c,0x40,0x76,0x6f,0x6c,0x75,0x6d,0x65,0x69,0x69,0x3a,0x0b,0x40,0x70,0x69,0x74,0x63,0x68,0x69,0x69))
   250(bytes(0x04,0x08,0x6f,0x3a,0x0c,0x52,0x50,0x47,0x3a,0x3a,0x53,0x45,0x08,0x3a,0x0a,0x40,0x6e,0x61,0x6d,0x65,0x49,0x22,0x0a,0x44,0x6f,0x77,0x6e,0x33,0x06,0x3a,0x06,0x45,0x54,0x3a,0x0b,0x40,0x70,0x69,0x74,0x63,0x68,0x69,0x69,0x3a,0x0c,0x40,0x76,0x6f,0x6c,0x75,0x6d,0x65,0x69,0x69))
   PictureDisplay(10,"sys_white",0,0,0,0,100,100,0,0)
   PictureMove(10,null,0,0,0,0,100,100,255,0,30,true)
   PictureDisplay(5,"80_sara_st14",0,0,0,0,100,100,255,0)
   PictureMove(10,null,0,0,0,0,100,100,0,0,30,true)
   PictureClear(1)
   ShowMessageFace("sara_fc2",4,0,2,36)
   ShowMessage("\\n<Sara>Ah...? I'm...")
   ShowMessageFace("sara_fc2",4,0,2,37)
   ShowMessage("\\n<Sara>...")
   PictureDisplay(5,"80_sara_st13",0,0,0,0,100,100,255,0)
   ShowMessageFace("sara_fc2",5,0,2,38)
   ShowMessage("\\n<Sara>Wait... Oh no! What outrageous things have I done?!")
   If(0,6,0)
    ShowMessageFace("sonia_fc3",7,0,2,39)
    ShowMessage("\\n<Sonya>Um, nice to meet you, Your Majesty... Has your reason returned?")
    0()
   Else()
    ShowMessageFace("ruka_fc1",0,0,2,40)
    ShowMessage("\\n<Luka>Your Majesty, has your sense of reason returned?")
    0()
   EndIf()
   ShowMessageFace("sara_fc2",5,0,2,41)
   ShowMessage("\\n<Sara>Yes. I have both my rationality and my memory back. All the immorality I've shown... All of it.")
   If(0,6,0)
    ShowMessageFace("sonia_fc2",2,0,2,42)
    ShowMessage("\\n<Sonya>Yeah, well, I can imagine how you feel.")
    0()
   Else()
    ShowMessageFace("ruka_fc1",0,0,2,43)
    ShowMessage("\\n<Luka>This must be hard for you. I can imagine how you feel.")
    0()
   EndIf()
   PictureDisplay(5,"80_sara_st12",0,0,0,0,100,100,255,0)
   ShowMessageFace("sara_fc2",2,0,2,44)
   ShowMessage("\\n<Sara>But now's not the time to be depressed. I have caused you all a great deal of trouble.")
   PictureClear(5)
   Wait(15)
   ChangeSwitch(31,31,0)
   205(8,bytes(0x04,0x08,0x6f,0x3a,0x13,0x52,0x50,0x47,0x3a,0x3a,0x4d,0x6f,0x76,0x65,0x52,0x6f,0x75,0x74,0x65,0x09,0x3a,0x0c,0x40,0x72,0x65,0x70,0x65,0x61,0x74,0x46,0x3a,0x0f,0x40,0x73,0x6b,0x69,0x70,0x70,0x61,0x62,0x6c,0x65,0x46,0x3a,0x0a,0x40,0x77,0x61,0x69,0x74,0x54,0x3a,0x0a,0x40,0x6c,0x69,0x73,0x74,0x5b,0x0b,0x6f,0x3a,0x15,0x52,0x50,0x47,0x3a,0x3a,0x4d,0x6f,0x76,0x65,0x43,0x6f,0x6d,0x6d,0x61,0x6e,0x64,0x07,0x3a,0x0a,0x40,0x63,0x6f,0x64,0x65,0x69,0x2a,0x3a,0x10,0x40,0x70,0x61,0x72,0x61,0x6d,0x65,0x74,0x65,0x72,0x73,0x5b,0x00,0x6f,0x3b,0x0a,0x07,0x3b,0x0b,0x69,0x22,0x3b,0x0c,0x5b,0x06,0x69,0x09,0x6f,0x3b,0x0a,0x07,0x3b,0x0b,0x69,0x09,0x3b,0x0c,0x5b,0x00,0x6f,0x3b,0x0a,0x07,0x3b,0x0b,0x69,0x09,0x3b,0x0c,0x5b,0x00,0x6f,0x3b,0x0a,0x07,0x3b,0x0b,0x69,0x09,0x3b,0x0c,0x5b,0x00,0x6f,0x3b,0x0a,0x07,0x3b,0x0b,0x69,0x00,0x3b,0x0c,0x5b,0x00))
   241(bytes(0x04,0x08,0x6f,0x3a,0x0d,0x52,0x50,0x47,0x3a,0x3a,0x42,0x47,0x4d,0x08,0x3a,0x0a,0x40,0x6e,0x61,0x6d,0x65,0x49,0x22,0x0a,0x6b,0x69,0x6b,0x69,0x32,0x06,0x3a,0x06,0x45,0x54,0x3a,0x0c,0x40,0x76,0x6f,0x6c,0x75,0x6d,0x65,0x69,0x69,0x3a,0x0b,0x40,0x70,0x69,0x74,0x63,0x68,0x69,0x69))
   ShowMessageFace("",0,0,2,45)
   ShowMessage("\\n<Royal Guard>Queeeen! I'm sorry to interrupt your fun, but I have an urgent message. Somethin' is happenin' in Luddite Village. It seems to be a big deal.")
   PictureDisplay(5,"80_sara_st15",0,0,0,0,100,100,255,0)
   ShowMessageFace("sara_fc2",3,0,2,46)
   ShowMessage("\\n<Sara>Luddite Village? Report, quickly!")
   ShowMessageFace("",0,0,2,47)
   ShowMessage("\\n<Royal Guard>Eh? Y-yes!")
   241(bytes(0x04,0x08,0x6f,0x3a,0x0d,0x52,0x50,0x47,0x3a,0x3a,0x42,0x47,0x4d,0x08,0x3a,0x0a,0x40,0x6e,0x61,0x6d,0x65,0x49,0x22,0x0a,0x6b,0x69,0x6b,0x69,0x31,0x06,0x3a,0x06,0x45,0x54,0x3a,0x0c,0x40,0x76,0x6f,0x6c,0x75,0x6d,0x65,0x69,0x69,0x3a,0x0b,0x40,0x70,0x69,0x74,0x63,0x68,0x69,0x69))
   ShowMessageFace("",0,0,2,48)
   ShowMessage("\\n<Royal Guard>Three succubi have assaulted Luddite Village! Somethin' serious is goin' on... Ehm, it's a pressing situation!")
   ShowMessageFace("sara_fc2",3,0,2,49)
   ShowMessage("\\n<Sara>Thank you for the report. Bring me my sword!")
   ShowMessageFace("",0,0,2,50)
   ShowMessage("\\n<Royal Guard>Huh? Sword? Eh?")
   ShowMessageFace("sara_fc2",3,0,2,51)
   ShowMessage("\\n<Sara>I'll be going there personally! Prepare for departure! ")
   ShowMessageFace("",0,0,2,52)
   ShowMessage("\\n<Royal Guard>Y-yesh! Understood!")
   PictureClear(5)
   Wait(15)
   205(8,bytes(0x04,0x08,0x6f,0x3a,0x13,0x52,0x50,0x47,0x3a,0x3a,0x4d,0x6f,0x76,0x65,0x52,0x6f,0x75,0x74,0x65,0x09,0x3a,0x0c,0x40,0x72,0x65,0x70,0x65,0x61,0x74,0x46,0x3a,0x0f,0x40,0x73,0x6b,0x69,0x70,0x70,0x61,0x62,0x6c,0x65,0x46,0x3a,0x0a,0x40,0x77,0x61,0x69,0x74,0x54,0x3a,0x0a,0x40,0x6c,0x69,0x73,0x74,0x5b,0x0c,0x6f,0x3a,0x15,0x52,0x50,0x47,0x3a,0x3a,0x4d,0x6f,0x76,0x65,0x43,0x6f,0x6d,0x6d,0x61,0x6e,0x64,0x07,0x3a,0x0a,0x40,0x63,0x6f,0x64,0x65,0x69,0x2a,0x3a,0x10,0x40,0x70,0x61,0x72,0x61,0x6d,0x65,0x74,0x65,0x72,0x73,0x5b,0x00,0x6f,0x3b,0x0a,0x07,0x3b,0x0b,0x69,0x22,0x3b,0x0c,0x5b,0x06,0x69,0x0b,0x6f,0x3b,0x0a,0x07,0x3b,0x0b,0x69,0x23,0x3b,0x0c,0x5b,0x06,0x69,0x0a,0x6f,0x3b,0x0a,0x07,0x3b,0x0b,0x69,0x06,0x3b,0x0c,0x5b,0x00,0x6f,0x3b,0x0a,0x07,0x3b,0x0b,0x69,0x06,0x3b,0x0c,0x5b,0x00,0x6f,0x3b,0x0a,0x07,0x3b,0x0b,0x69,0x06,0x3b,0x0c,0x5b,0x00,0x6f,0x3b,0x0a,0x07,0x3b,0x0b,0x69,0x00,0x3b,0x0c,0x5b,0x00))
   ChangeSwitch(31,31,1)
   221()
   ShowMessageFace("",0,0,2,53)
   ShowMessage("Queen Sara has changed into her battle equipment!")
   222()
   PictureDisplay(5,"80_sara_st05",0,0,0,0,100,100,255,0)
   ShowMessageFace("sara_fc1",2,0,2,54)
   ShowMessage("\\n<Sara>In accordance with a defense agreement we have with San Ilia against yoma, Sabasa will dispatch reinforcements!")
   ShowMessageFace("sara_fc1",2,0,2,55)
   ShowMessage("\\n<Sara>Relay these words to San Ilia's minister of foreign affairs! Our country should be on a semi-alert status!")
   If(4,531,0)
    ShowMessageFace("saniria_fc2",0,0,2,56)
    ShowMessage("\\n<King of San Ilia>There's no need to notify San Ilia, for I am here and I heard that.")
    ShowMessageFace("sara_fc1",3,0,2,57)
    ShowMessage("\\n<Sara>Eh? It can't be... The Pope himself? Please excuse my rudeness! Since we have an emergency, let's postpone a more formal greeting.")
    0()
   EndIf()
   ShowMessageFace("sara_fc1",2,0,2,58)
   ShowMessage("\\n<Sara>I will head to Luddite Village! Organize reinforcements for San Ilia and march to Luddite!")
   PictureDisplay(5,"80_sara_st03",0,0,0,0,100,100,255,0)
   ShowMessageFace("sara_fc1",4,0,2,59)
   ShowMessage("\\n<Sara>Samson will command the reinforcements. ...Ah, I fired him, didn't I?")
   PictureDisplay(5,"80_sara_st05",0,0,0,0,100,100,255,0)
   ShowMessageFace("sara_fc1",2,0,2,60)
   ShowMessage("\\n<Sara>Find Samson as soon as possible and have him lead the army! He's a warrior among warriors, he should be equipped to fight at any time!")
   ShowMessageFace("",0,0,2,61)
   ShowMessage("\\n<Royal Guard>Y-yesh! Right away!")
   PictureDisplay(5,"80_sara_st01",0,0,0,0,100,100,255,0)
   ShowMessageFace("sara_fc1",0,0,2,62)
   ShowMessage("\\n<Sara>Travelers! After seeing your strength, I have a request for you...")
   PictureDisplay(5,"80_sara_st03",0,0,0,0,100,100,255,0)
   ShowMessageFace("sara_fc1",4,0,2,63)
   ShowMessage("\\n<Sara>...Ahh, damn! You've already seen me in my most embarrassing moment, so may as well act informal with you, I guess.")
   PictureDisplay(5,"80_sara_st05",0,0,0,0,100,100,255,0)
   ShowMessageFace("sara_fc1",2,0,2,64)
   ShowMessage("\\n<Sara>Lend me your strength! We'll rush to Luddite Village and attack the enemy there!")
   If(0,6,0)
    ShowMessageFace("sonia_fc3",2,0,2,65)
    ShowMessage("\\n<Sonya>Wh-what an aggressive queen!")
    0()
   Else()
    ShowMessageFace("ruka_fc1",0,0,2,66)
    ShowMessage("\\n<Luka>S-so valiant.")
    0()
   EndIf()
   ShowMessageFace("sara_fc1",2,0,2,67)
   ShowMessage("\\n<Sara>It's the three succubi who are the masterminds behind this country's disorder! They may have fled from Sabasa because they realized my sanity has returned.")
   ShowMessageFace("ruka_fc1",0,0,2,68)
   ShowMessage("\\n<Luka>The masterminds are in Luddite Village?! Could those three succubi be...?")
   If(4,56,0)
    ShowMessageFace("inp_fc1",3,0,2,69)
    ShowMessage("\\n<Rami>I-it's not us!")
    0()
   EndIf()
   If(0,4,0)
    ShowMessageFace("alice_fc6",0,0,2,70)
    ShowMessage("\\n<Alice>The Lilith sisters!")
    0()
   EndIf()
   If(0,5,0)
    ShowMessageFace("iriasu_fc4",7,0,2,71)
    ShowMessage("\\n<Ilias>It's the three Lilith sisters!")
    0()
   EndIf()
   ShowMessageFace("sara_fc1",2,0,2,72)
   ShowMessage("\\n<Sara>Let's hurry!")
   PictureClear(5)
   205(0,bytes(0x04,0x08,0x6f,0x3a,0x13,0x52,0x50,0x47,0x3a,0x3a,0x4d,0x6f,0x76,0x65,0x52,0x6f,0x75,0x74,0x65,0x09,0x3a,0x0c,0x40,0x72,0x65,0x70,0x65,0x61,0x74,0x46,0x3a,0x0f,0x40,0x73,0x6b,0x69,0x70,0x70,0x61,0x62,0x6c,0x65,0x46,0x3a,0x0a,0x40,0x77,0x61,0x69,0x74,0x54,0x3a,0x0a,0x40,0x6c,0x69,0x73,0x74,0x5b,0x09,0x6f,0x3a,0x15,0x52,0x50,0x47,0x3a,0x3a,0x4d,0x6f,0x76,0x65,0x43,0x6f,0x6d,0x6d,0x61,0x6e,0x64,0x07,0x3a,0x0a,0x40,0x63,0x6f,0x64,0x65,0x69,0x2a,0x3a,0x10,0x40,0x70,0x61,0x72,0x61,0x6d,0x65,0x74,0x65,0x72,0x73,0x5b,0x00,0x6f,0x3b,0x0a,0x07,0x3b,0x0b,0x69,0x0f,0x3b,0x0c,0x5b,0x00,0x6f,0x3b,0x0a,0x07,0x3b,0x0b,0x69,0x2c,0x3b,0x0c,0x5b,0x00,0x6f,0x3b,0x0a,0x07,0x3b,0x0b,0x69,0x00,0x3b,0x0c,0x5b,0x00))
   355("add_actor_ex(529)")
   249(bytes(0x04,0x08,0x6f,0x3a,0x0c,0x52,0x50,0x47,0x3a,0x3a,0x4d,0x45,0x08,0x3a,0x0a,0x40,0x6e,0x61,0x6d,0x65,0x49,0x22,0x0c,0x66,0x61,0x6e,0x66,0x61,0x6c,0x65,0x06,0x3a,0x06,0x45,0x54,0x3a,0x0b,0x40,0x70,0x69,0x74,0x63,0x68,0x69,0x69,0x3a,0x0c,0x40,0x76,0x6f,0x6c,0x75,0x6d,0x65,0x69,0x69))
   ShowMessageFace("",0,0,2,73)
   ShowMessage("Sara has joined the party!")
   Wait(60)
   If(0,6,0)
    ShowMessageFace("sonia_fc3",2,0,2,74)
    ShowMessage("\\n<Sonya>This Sara... She's unique in a way that's different than when she lost her reason.")
    0()
   EndIf()
   ShowMessageFace("ruka_fc1",0,0,2,75)
   ShowMessage("\\n<Luka>Well then, let's head to Luddite Village!")
   If(4,531,0)
    ShowMessageFace("saniria_fc2",0,0,2,76)
    ShowMessage("\\n<King of San Ilia> I will accompany you, of course. It is, after all, my responsibility as King of San Ilia.")
    0()
   EndIf()
   If(4,79,0)
    ShowMessageFace("nuruko_fc1",0,0,2,77)
    ShowMessage("\\n<Nuruko>Kyuuu!!")
    0()
   EndIf()
   241(bytes(0x04,0x08,0x6f,0x3a,0x0d,0x52,0x50,0x47,0x3a,0x3a,0x42,0x47,0x4d,0x08,0x3a,0x0a,0x40,0x6e,0x61,0x6d,0x65,0x49,0x22,0x0c,0x63,0x61,0x73,0x74,0x6c,0x65,0x32,0x06,0x3a,0x06,0x45,0x54,0x3a,0x0c,0x40,0x76,0x6f,0x6c,0x75,0x6d,0x65,0x69,0x69,0x3a,0x0b,0x40,0x70,0x69,0x74,0x63,0x68,0x69,0x69))
   ChangeVariable(1028,1028,0,0,6)
   314(0,0)
   EndEventProcessing()
   0()
  EndIf()
  0()
 PAGE   2
  // condition: variable 1028 >= 6
  0()
 PAGE   3
  // condition: variable 1028 >= 7
  0()
 PAGE   4
  // condition: variable 1028 >= 8
 PAGE   5
  // condition: variable 1073 >= 2
  217()
  ChangeVariable(1073,1073,0,0,3)
  If(0,6,0)
   ShowMessageFace("sonia_fc1",0,0,2,1)
   ShowMessage("【ソニア】")
   ShowMessage("サラ、準備はできた……？")
   0()
  Else()
   ShowMessageFace("ruka_fc1",0,0,2,2)
   ShowMessage("【ルカ】")
   ShowMessage("サラ、準備はいい？")
   0()
  EndIf()
  ShowMessageFace("sara_fc2",1,0,2,3)
  ShowMessage("【サラ】")
  ShowMessage("ティアラ付けて……よし、オッケー！")
  ChangeSwitch(32,32,0)
  TeleportEvent(12,0,24,9,8)
  205(12,bytes(0x04,0x08,0x6f,0x3a,0x13,0x52,0x50,0x47,0x3a,0x3a,0x4d,0x6f,0x76,0x65,0x52,0x6f,0x75,0x74,0x65,0x09,0x3a,0x0c,0x40,0x72,0x65,0x70,0x65,0x61,0x74,0x46,0x3a,0x0f,0x40,0x73,0x6b,0x69,0x70,0x70,0x61,0x62,0x6c,0x65,0x46,0x3a,0x0a,0x40,0x77,0x61,0x69,0x74,0x54,0x3a,0x0a,0x40,0x6c,0x69,0x73,0x74,0x5b,0x08,0x6f,0x3a,0x15,0x52,0x50,0x47,0x3a,0x3a,0x4d,0x6f,0x76,0x65,0x43,0x6f,0x6d,0x6d,0x61,0x6e,0x64,0x07,0x3a,0x0a,0x40,0x63,0x6f,0x64,0x65,0x69,0x09,0x3a,0x10,0x40,0x70,0x61,0x72,0x61,0x6d,0x65,0x74,0x65,0x72,0x73,0x5b,0x00,0x6f,0x3b,0x0a,0x07,0x3b,0x0b,0x69,0x15,0x3b,0x0c,0x5b,0x00,0x6f,0x3b,0x0a,0x07,0x3b,0x0b,0x69,0x00,0x3b,0x0c,0x5b,0x00))
  ShowMessageFace("ruka_fc1",0,0,2,4)
  ShowMessage("【ルカ】")
  ShowMessage("……無事に、クィーンヴァンパイアの討伐を成し遂げました。")
  ShowMessage("ここにご報告いたします。")
  ShowMessageFace("sara_fc2",1,0,2,5)
  ShowMessage("【サラ】")
  ShowMessage("ご苦労でしたね、勇者ルカ。")
  ShowMessage("吸血鬼達が、サバサの地から撤退したという報告も届いています。")
  ShowMessageFace("sara_fc2",1,0,2,6)
  ShowMessage("【サラ】")
  ShowMessage("あなたの功績に報い、これを授けましょう。")
  ShowMessage("我が王国に、古代から伝わる秘宝です。")
  250(bytes(0x04,0x08,0x6f,0x3a,0x0c,0x52,0x50,0x47,0x3a,0x3a,0x53,0x45,0x08,0x3a,0x0a,0x40,0x6e,0x61,0x6d,0x65,0x49,0x22,0x0a,0x49,0x74,0x65,0x6d,0x31,0x06,0x3a,0x06,0x45,0x54,0x3a,0x0b,0x40,0x70,0x69,0x74,0x63,0x68,0x69,0x69,0x3a,0x0c,0x40,0x76,0x6f,0x6c,0x75,0x6d,0x65,0x69,0x55))
  ChangeInventory_Item(624,0,0,1)
  ChangeSwitch(2311,2311,0)
  If(0,4,0)
   ShowMessageFace("alice_fc5",1,0,2,7)
   ShowMessage("【アリス】")
   ShowMessage("これは、王家に伝わる最上級職への転職アイテムのひとつ……")
   ShowMessage("これでパワー系の最上級職に就けるな。")
   0()
  EndIf()
  If(0,5,0)
   ShowMessageFace("iriasu_fc4",1,0,2,8)
   ShowMessage("【イリアス】")
   ShowMessage("これは、王家に伝わる最上級職への転職アイテムのひとつ……")
   ShowMessage("これでパワー系の最上級職に就けますね。")
   0()
  EndIf()
  ChangeVariable(1079,1079,0,0,4)
  RunCommonEvent(329)
  If(0,2274,0)
   EndEventProcessing()
   0()
  EndIf()
  ShowMessageFace("sara_fc2",1,0,2,9)
  ShowMessage("【サラ】")
  ShowMessage("いまだ他国は、魔王軍の攻撃にさらされています。")
  ShowMessage("すみやかに女王を討ち、諸国の窮地を救うのです……")
  ShowMessageFace("sara_fc2",1,0,2,10)
  ShowMessage("【サラ】")
  ShowMessage("……以上！　それじゃあ、行くわよ！")
  205(12,bytes(0x04,0x08,0x6f,0x3a,0x13,0x52,0x50,0x47,0x3a,0x3a,0x4d,0x6f,0x76,0x65,0x52,0x6f,0x75,0x74,0x65,0x09,0x3a,0x0c,0x40,0x72,0x65,0x70,0x65,0x61,0x74,0x46,0x3a,0x0f,0x40,0x73,0x6b,0x69,0x70,0x70,0x61,0x62,0x6c,0x65,0x46,0x3a,0x0a,0x40,0x77,0x61,0x69,0x74,0x54,0x3a,0x0a,0x40,0x6c,0x69,0x73,0x74,0x5b,0x08,0x6f,0x3a,0x15,0x52,0x50,0x47,0x3a,0x3a,0x4d,0x6f,0x76,0x65,0x43,0x6f,0x6d,0x6d,0x61,0x6e,0x64,0x07,0x3a,0x0a,0x40,0x63,0x6f,0x64,0x65,0x69,0x06,0x3a,0x10,0x40,0x70,0x61,0x72,0x61,0x6d,0x65,0x74,0x65,0x72,0x73,0x5b,0x00,0x6f,0x3b,0x0a,0x07,0x3b,0x0b,0x69,0x2c,0x3b,0x0c,0x5b,0x00,0x6f,0x3b,0x0a,0x07,0x3b,0x0b,0x69,0x00,0x3b,0x0c,0x5b,0x00))
  ChangeSwitch(32,32,1)
  TeleportEvent(12,0,0,34,8)
  EndEventProcessing()
  0()
 PAGE   6
  // condition: variable 1073 >= 3
  0()



EVENT   8
 PAGE   1
  // condition: switch 31 is ON
  0()



EVENT   9
 PAGE   1
  // condition: variable 1028 >= 7
  241(bytes(0x04,0x08,0x6f,0x3a,0x0d,0x52,0x50,0x47,0x3a,0x3a,0x42,0x47,0x4d,0x08,0x3a,0x0a,0x40,0x6e,0x61,0x6d,0x65,0x49,0x22,0x14,0x73,0x63,0x65,0x6e,0x65,0x5f,0x65,0x70,0x69,0x6c,0x6f,0x67,0x75,0x65,0x31,0x06,0x3a,0x06,0x45,0x54,0x3a,0x0c,0x40,0x76,0x6f,0x6c,0x75,0x6d,0x65,0x69,0x69,0x3a,0x0b,0x40,0x70,0x69,0x74,0x63,0x68,0x69,0x69))
  ChangeSelfSwitch("A",0)
  314(0,0)
  222()
  PictureDisplay(5,"80_sara_st12",0,0,0,0,100,100,0,0)
  PictureMove(5,null,0,0,0,0,100,100,255,0,30,true)
  ShowMessageFace("ruka_fc1",0,0,2,1)
  ShowMessage("\\n<Luka>Are you sure it's all right to simply abdicate the throne so suddenly?")
  ShowMessageFace("sara_fc2",1,0,2,2)
  ShowMessage("\\n<Sara>After committing such debauchery, I cannot continue to be this country's ruler.")
  If(4,118,0)
   ShowMessageFace("meia_fc1",0,0,2,3)
   ShowMessage("\\n<Meia>Being brainwashed and forced to do something you would normally not want to do... I know that situation all too well.")
   0()
  EndIf()
  If(0,6,0)
   ShowMessageFace("sonia_fc2",2,0,2,4)
   ShowMessage("\\n<Sonya>Once people understand why you acted that way, I'm sure Sabasa's people would sympathize with you. There's no need to force yourself to quit.")
   0()
  Else()
   ShowMessageFace("ruka_fc1",0,0,2,5)
   ShowMessage("\\n<Luka>Even after the announcement, most have sympathized with you. I don't think you had to force yourself to abdicate.")
   0()
  EndIf()
  ShowMessageFace("sara_fc2",1,0,2,6)
  ShowMessage("\\n<Sara>As the ruler, I was fully responsible. Being manipulated by a succubus is no excuse, no matter who that succubus may be.")
  ShowMessageFace("sara_fc2",1,0,2,7)
  ShowMessage("\\n<Sara>Besides, Sabasa has always had a parliament anyway. All we have to do is strengthen their authority and the handover of power should go smoothly.")
  If(0,4,0)
   ShowMessageFace("alice_fc5",0,0,2,8)
   ShowMessage("\\n<Alice>The citizens became more politically aware while their queen was busy being perverted. This is a surprisingly good opportunity for the country to become a democracy.")
   0()
  EndIf()
  If(0,5,0)
   ShowMessageFace("iriasu_fc4",0,0,2,9)
   ShowMessage("\\n<Ilias>This incident surely raised the political awareness of the citizens of Sabasa. It may now be the appropriate time to convert to a democratic country.")
   0()
  EndIf()
  ShowMessageFace("sara_fc2",2,0,2,10)
  ShowMessage("\\n<Sara>Indeed. It's the best thing I could do. Besides, rather than continue as a queen just in name, there is something more important I could be doing...")
  If(0,6,0)
   ShowMessageFace("sonia_fc3",2,0,2,11)
   ShowMessage("\\n<Sonya>You don't mean...")
   0()
  Else()
   ShowMessageFace("ruka_fc1",0,0,2,12)
   ShowMessage("\\n<Luka>Don't tell me... You mean...")
   0()
  EndIf()
  PictureDisplay(5,"80_sara_st02",0,0,0,0,100,100,255,0)
  205(7,bytes(0x04,0x08,0x6f,0x3a,0x13,0x52,0x50,0x47,0x3a,0x3a,0x4d,0x6f,0x76,0x65,0x52,0x6f,0x75,0x74,0x65,0x09,0x3a,0x0c,0x40,0x72,0x65,0x70,0x65,0x61,0x74,0x46,0x3a,0x0f,0x40,0x73,0x6b,0x69,0x70,0x70,0x61,0x62,0x6c,0x65,0x46,0x3a,0x0a,0x40,0x77,0x61,0x69,0x74,0x54,0x3a,0x0a,0x40,0x6c,0x69,0x73,0x74,0x5b,0x07,0x6f,0x3a,0x15,0x52,0x50,0x47,0x3a,0x3a,0x4d,0x6f,0x76,0x65,0x43,0x6f,0x6d,0x6d,0x61,0x6e,0x64,0x07,0x3a,0x0a,0x40,0x63,0x6f,0x64,0x65,0x69,0x2e,0x3a,0x10,0x40,0x70,0x61,0x72,0x61,0x6d,0x65,0x74,0x65,0x72,0x73,0x5b,0x07,0x49,0x22,0x10,0x52,0x6f,0x69,0x61,0x6c,0x30,0x32,0x5f,0x63,0x69,0x70,0x06,0x3a,0x06,0x45,0x54,0x69,0x00,0x6f,0x3b,0x0a,0x07,0x3b,0x0b,0x69,0x00,0x3b,0x0c,0x5b,0x00))
  ShowMessageFace("",0,0,2,13)
  ShowMessage("Sara changes her clothes in an instant!")
  ShowMessageFace("sara_fc1",1,0,2,14)
  ShowMessage("\\n<Sara>...Coming with you on your journey to save the world, of course! I will be accompanying you all!")
  If(0,6,0)
   ShowMessageFace("sonia_fc3",2,0,2,15)
   ShowMessage("\\n<Sonya>No way! A noble shouldn't--!")
   0()
  Else()
   ShowMessageFace("ruka_fc1",0,0,2,16)
   ShowMessage("\\n<Luka>That's too careless! Someone from the royal family shouldn't--!")
   0()
  EndIf()
  PictureDisplay(5,"80_sara_st03",0,0,0,0,100,100,255,0)
  ShowMessageFace("sara_fc1",4,0,2,17)
  ShowMessage("\\n<Sara>As of this moment, I'm no longer queen. Also, since we're pretty much the same age, you can speak to me as an equal.")
  PictureDisplay(5,"80_sara_st02",0,0,0,0,100,100,255,0)
  ShowMessageFace("sara_fc1",1,0,2,18)
  ShowMessage("\\n<Sara>I'll be going with you. Thank you for having me, Luka!")
  PictureClear(5)
  205(7,bytes(0x04,0x08,0x6f,0x3a,0x13,0x52,0x50,0x47,0x3a,0x3a,0x4d,0x6f,0x76,0x65,0x52,0x6f,0x75,0x74,0x65,0x09,0x3a,0x0c,0x40,0x72,0x65,0x70,0x65,0x61,0x74,0x46,0x3a,0x0f,0x40,0x73,0x6b,0x69,0x70,0x70,0x61,0x62,0x6c,0x65,0x46,0x3a,0x0a,0x40,0x77,0x61,0x69,0x74,0x54,0x3a,0x0a,0x40,0x6c,0x69,0x73,0x74,0x5b,0x09,0x6f,0x3a,0x15,0x52,0x50,0x47,0x3a,0x3a,0x4d,0x6f,0x76,0x65,0x43,0x6f,0x6d,0x6d,0x61,0x6e,0x64,0x07,0x3a,0x0a,0x40,0x63,0x6f,0x64,0x65,0x69,0x2a,0x3a,0x10,0x40,0x70,0x61,0x72,0x61,0x6d,0x65,0x74,0x65,0x72,0x73,0x5b,0x00,0x6f,0x3b,0x0a,0x07,0x3b,0x0b,0x69,0x06,0x3b,0x0c,0x5b,0x00,0x6f,0x3b,0x0a,0x07,0x3b,0x0b,0x69,0x2c,0x3b,0x0c,0x5b,0x00,0x6f,0x3b,0x0a,0x07,0x3b,0x0b,0x69,0x00,0x3b,0x0c,0x5b,0x00))
  ChangeVariable(1028,1028,0,0,8)
  249(bytes(0x04,0x08,0x6f,0x3a,0x0c,0x52,0x50,0x47,0x3a,0x3a,0x4d,0x45,0x08,0x3a,0x0a,0x40,0x6e,0x61,0x6d,0x65,0x49,0x22,0x0c,0x66,0x61,0x6e,0x66,0x61,0x6c,0x65,0x06,0x3a,0x06,0x45,0x54,0x3a,0x0b,0x40,0x70,0x69,0x74,0x63,0x68,0x69,0x69,0x3a,0x0c,0x40,0x76,0x6f,0x6c,0x75,0x6d,0x65,0x69,0x69))
  ShowMessageFace("",0,0,2,19)
  ShowMessage("Sara formally joins the party!")
  Wait(60)
  If(0,6,0)
   ShowMessageFace("sonia_fc2",2,0,2,20)
   ShowMessage("\\n<Sonya>I'm not against it personally... I mean, it's reassuring to have you with us, but you're still a noble. Is this really acceptable?")
   ShowMessageFace("sonia_fc1",0,0,2,21)
   ShowMessage("\\n<Sonya>Well then, it's settled! Let's get going, Lady Sara!")
   ShowMessageFace("sara_fc1",1,0,2,22)
   ShowMessage("\\n<Sara>Just call me Sara. Thank you for having me, Sonya.")
   0()
  Else()
   ShowMessageFace("ruka_fc1",0,0,2,23)
   ShowMessage("\\n<Luka>Is this really all right though?")
   0()
  EndIf()
  355("gain_medal(26)")
  If(1,1029,0,2,2)
   ChangeVariable(1029,1029,0,0,1)
   Wait(15)
   ChangeSwitch(31,31,0)
   205(8,bytes(0x04,0x08,0x6f,0x3a,0x13,0x52,0x50,0x47,0x3a,0x3a,0x4d,0x6f,0x76,0x65,0x52,0x6f,0x75,0x74,0x65,0x09,0x3a,0x0c,0x40,0x72,0x65,0x70,0x65,0x61,0x74,0x46,0x3a,0x0f,0x40,0x73,0x6b,0x69,0x70,0x70,0x61,0x62,0x6c,0x65,0x46,0x3a,0x0a,0x40,0x77,0x61,0x69,0x74,0x54,0x3a,0x0a,0x40,0x6c,0x69,0x73,0x74,0x5b,0x0d,0x6f,0x3a,0x15,0x52,0x50,0x47,0x3a,0x3a,0x4d,0x6f,0x76,0x65,0x43,0x6f,0x6d,0x6d,0x61,0x6e,0x64,0x07,0x3a,0x0a,0x40,0x63,0x6f,0x64,0x65,0x69,0x22,0x3a,0x10,0x40,0x70,0x61,0x72,0x61,0x6d,0x65,0x74,0x65,0x72,0x73,0x5b,0x06,0x69,0x0a,0x6f,0x3b,0x0a,0x07,0x3b,0x0b,0x69,0x23,0x3b,0x0c,0x5b,0x06,0x69,0x09,0x6f,0x3b,0x0a,0x07,0x3b,0x0b,0x69,0x2a,0x3b,0x0c,0x5b,0x00,0x6f,0x3b,0x0a,0x07,0x3b,0x0b,0x69,0x09,0x3b,0x0c,0x5b,0x00,0x6f,0x3b,0x0a,0x07,0x3b,0x0b,0x69,0x09,0x3b,0x0c,0x5b,0x00,0x6f,0x3b,0x0a,0x07,0x3b,0x0b,0x69,0x09,0x3b,0x0c,0x5b,0x00,0x6f,0x3b,0x0a,0x07,0x3b,0x0b,0x69,0x09,0x3b,0x0c,0x5b,0x00,0x6f,0x3b,0x0a,0x07,0x3b,0x0b,0x69,0x00,0x3b,0x0c,0x5b,0x00))
   205(-1,bytes(0x04,0x08,0x6f,0x3a,0x13,0x52,0x50,0x47,0x3a,0x3a,0x4d,0x6f,0x76,0x65,0x52,0x6f,0x75,0x74,0x65,0x09,0x3a,0x0c,0x40,0x72,0x65,0x70,0x65,0x61,0x74,0x46,0x3a,0x0f,0x40,0x73,0x6b,0x69,0x70,0x70,0x61,0x62,0x6c,0x65,0x46,0x3a,0x0a,0x40,0x77,0x61,0x69,0x74,0x54,0x3a,0x0a,0x40,0x6c,0x69,0x73,0x74,0x5b,0x07,0x6f,0x3a,0x15,0x52,0x50,0x47,0x3a,0x3a,0x4d,0x6f,0x76,0x65,0x43,0x6f,0x6d,0x6d,0x61,0x6e,0x64,0x07,0x3a,0x0a,0x40,0x63,0x6f,0x64,0x65,0x69,0x15,0x3a,0x10,0x40,0x70,0x61,0x72,0x61,0x6d,0x65,0x74,0x65,0x72,0x73,0x5b,0x00,0x6f,0x3b,0x0a,0x07,0x3b,0x0b,0x69,0x00,0x3b,0x0c,0x5b,0x00))
   241(bytes(0x04,0x08,0x6f,0x3a,0x0d,0x52,0x50,0x47,0x3a,0x3a,0x42,0x47,0x4d,0x08,0x3a,0x0a,0x40,0x6e,0x61,0x6d,0x65,0x49,0x22,0x0a,0x6b,0x69,0x6b,0x69,0x32,0x06,0x3a,0x06,0x45,0x54,0x3a,0x0c,0x40,0x76,0x6f,0x6c,0x75,0x6d,0x65,0x69,0x69,0x3a,0x0b,0x40,0x70,0x69,0x74,0x63,0x68,0x69,0x69))
   ShowMessageFace("",0,0,2,24)
   ShowMessage("\\n<Royal Guard>Your Majesty, I have an urgent report!")
   ShowMessageFace("sara_fc1",4,0,2,25)
   ShowMessage("\\n<Sara>But I'm no longer your queen...")
   ShowMessageFace("",0,0,2,26)
   ShowMessage("\\n<Royal Guard>That doesn't change the fact that you are still the current ruler of Sabasa. Anyway, the urgent message comes from Magistea Village!")
   ShowMessageFace("sara_fc1",3,0,2,27)
   ShowMessage("\\n<Sara>Magistea... Witch Hunt Village?!")
   ShowMessageFace("",0,0,2,28)
   ShowMessage("\\n<Royal Guard>There was a large-scale rebel terrorist attack in Magistea! Now the rebel army's fight against the lord's army has incited a civil war!")
   ShowMessageFace("ruka_fc1",0,0,2,29)
   ShowMessage("\\n<Luka>Civil war? Why?")
   ShowMessageFace("sara_fc1",0,0,2,30)
   ShowMessage("\\n<Sara>Magistea Village is ruled by a lord who uses magic. The village's old-fashioned societal structure has been a problem for a long time now, but...")
   ShowMessageFace("sara_fc1",0,0,2,31)
   ShowMessage("\\n<Sara>The villagers who seek to be released and free have formed an army. Ever since then, the fight between the factions has been getting worse.")
   ShowMessageFace("sara_fc1",4,0,2,32)
   ShowMessage("\\n<Sara>So this has finally led to an uprising. A war that involves sorcery will definitely have a gruesome outcome.")
   ShowMessageFace("",0,0,2,33)
   ShowMessage("\\n<Royal Guard>It seems like the soldiers can't hold a candle to either the lord's army or the rebel army. Both of them are led by powerful sorcerers with many monster subordinates.")
   ShowMessageFace("sara_fc1",0,0,2,34)
   ShowMessage("\\n<Sara>Thank you for the report. You may go now.")
   205(8,bytes(0x04,0x08,0x6f,0x3a,0x13,0x52,0x50,0x47,0x3a,0x3a,0x4d,0x6f,0x76,0x65,0x52,0x6f,0x75,0x74,0x65,0x09,0x3a,0x0c,0x40,0x72,0x65,0x70,0x65,0x61,0x74,0x46,0x3a,0x0f,0x40,0x73,0x6b,0x69,0x70,0x70,0x61,0x62,0x6c,0x65,0x46,0x3a,0x0a,0x40,0x77,0x61,0x69,0x74,0x46,0x3a,0x0a,0x40,0x6c,0x69,0x73,0x74,0x5b,0x0f,0x6f,0x3a,0x15,0x52,0x50,0x47,0x3a,0x3a,0x4d,0x6f,0x76,0x65,0x43,0x6f,0x6d,0x6d,0x61,0x6e,0x64,0x07,0x3a,0x0a,0x40,0x63,0x6f,0x64,0x65,0x69,0x22,0x3a,0x10,0x40,0x70,0x61,0x72,0x61,0x6d,0x65,0x74,0x65,0x72,0x73,0x5b,0x06,0x69,0x09,0x6f,0x3b,0x0a,0x07,0x3b,0x0b,0x69,0x23,0x3b,0x0c,0x5b,0x06,0x69,0x08,0x6f,0x3b,0x0a,0x07,0x3b,0x0b,0x69,0x2a,0x3b,0x0c,0x5b,0x00,0x6f,0x3b,0x0a,0x07,0x3b,0x0b,0x69,0x06,0x3b,0x0c,0x5b,0x00,0x6f,0x3b,0x0a,0x07,0x3b,0x0b,0x69,0x06,0x3b,0x0c,0x5b,0x00,0x6f,0x3b,0x0a,0x07,0x3b,0x0b,0x69,0x06,0x3b,0x0c,0x5b,0x00,0x6f,0x3b,0x0a,0x07,0x3b,0x0b,0x69,0x06,0x3b,0x0c,0x5b,0x00,0x6f,0x3b,0x0a,0x07,0x3b,0x0b,0x69,0x06,0x3b,0x0c,0x5b,0x00,0x6f,0x3b,0x0a,0x07,0x3b,0x0b,0x69,0x06,0x3b,0x0c,0x5b,0x00,0x6f,0x3b,0x0a,0x07,0x3b,0x0b,0x69,0x00,0x3b,0x0c,0x5b,0x00))
   ShowMessageFace("sara_fc1",0,0,2,35)
   ShowMessage("\\n<Sara>If the army is dispatched there all of a sudden, there's a chance that the chaos could escalate. Looks like I'll have to go there myself.")
   ShowMessageFace("ruka_fc1",0,0,2,36)
   ShowMessage("\\n<Luka>We'll help you! We can't ignore a situation like this.")
   If(4,129,0)
    ShowMessageFace("brunhild_fc1",0,0,2,37)
    ShowMessage("\\n<Hild>Hild will go, too. Beat enemies up.")
    0()
   EndIf()
   If(0,4,0)
    ShowMessageFace("alice_fc5",3,0,2,38)
    ShowMessage("\\n<Alice>They can't be left to their own devices. Since monsters are involved, I won't tolerate this mess.")
    0()
   EndIf()
   If(0,5,0)
    ShowMessageFace("iriasu_fc4",2,0,2,39)
    ShowMessage("\\n<Ilias>We are left with no other just option. I cannot overlook such profane sorcery leading humanity astray.")
    0()
   EndIf()
   If(1,1001,0,17,0)
    If(0,4,0)
     ShowMessageFace("alice_fc5",0,0,2,40)
     ShowMessage("\\n<Alice>We'll have to leave Gnome and the Tartarus rift for later. Besides, it wouldn't be a bad idea to train more before challenging either of those dangerous places.")
     0()
    EndIf()
    If(0,5,0)
     ShowMessageFace("iriasu_fc4",2,0,2,41)
     ShowMessage("\\n<Ilias>We will have to leave Gnome and the Tartarus rift for later. It even would be wise to improve our skills with this deviation before exploring the Tartarus rift or seeking out Gnome.")
     0()
    EndIf()
    0()
   EndIf()
   ShowMessageFace("sara_fc1",0,0,2,42)
   ShowMessage("\\n<Sara>Thank you for your cooperation. Magistea is quite a distance from Sabasa, however.")
   ShowMessageFace("sara_fc1",0,0,2,43)
   ShowMessage("\\n<Sara>It is located to the west of Sabasa Castle. But in order to get there, we'll have to bypass the mountain range to the west, taking a roundabout detour.")
   ShowMessageFace("sara_fc1",0,0,2,44)
   ShowMessage("\\n<Sara>First we have to head straight north and cross the bridge at the river. Then to the northwest, we'll see Sabasa's largest business district, Grandeur.")
   ShowMessageFace("sara_fc1",0,0,2,45)
   ShowMessage("\\n<Sara>Since it's on the other side of the river, we'll have to go around the waterway first, but then we'll be able to rest in Grandeur.")
   ShowMessageFace("sara_fc1",0,0,2,46)
   ShowMessage("\\n<Sara>It's best to give further directions in Grandeur. If I told you everything at once, you would probably forget the details, right?")
   ShowMessageFace("ruka_fc1",0,0,2,47)
   ShowMessage("\\n<Luka>Yeah, you're probably right. Let's go to Grandeur first!")
   ShowMessageFace("",0,0,2,48)
   ShowMessage("North of Sabasa Castle, there's a large bridge for crossing the river. From there we will visit the town called Grandeur. We'll rest there before heading to Magistea.")
   ShowMessageFace("",0,0,2,49)
   ShowMessage("It looks like our adventure is taking us there next.")
   0()
  EndIf()
  ChangeSwitch(31,31,1)
  241(bytes(0x04,0x08,0x6f,0x3a,0x0d,0x52,0x50,0x47,0x3a,0x3a,0x42,0x47,0x4d,0x08,0x3a,0x0a,0x40,0x6e,0x61,0x6d,0x65,0x49,0x22,0x0c,0x63,0x61,0x73,0x74,0x6c,0x65,0x32,0x06,0x3a,0x06,0x45,0x54,0x3a,0x0c,0x40,0x76,0x6f,0x6c,0x75,0x6d,0x65,0x69,0x69,0x3a,0x0b,0x40,0x70,0x69,0x74,0x63,0x68,0x69,0x69))
  0()
 PAGE   2
  // condition: self-switch A is ON
  0()



EVENT   10
 PAGE   1
  // condition: variable 1028 >= 8
  ShowMessageFace("",0,0,2,1)
  ShowMessage("\\n<Samson>The previous king also used to travel around to gain combat experience when he was the same age as Lady Sara. You can't fight against what's in your own blood.")
  If(0,1565,1)
   ShowMessageFace("",0,0,2,2)
   ShowMessage("\\n<Samson>By the way, would you need my great strength during your adventure? It doesn't benefit me to remain quietly in the castle.")
   ShowChoices(strings("Let him join","Decline for now"),0)
   IfPlayerPicksChoice(0,null)
    ShowMessageFace("",0,0,2,3)
    ShowMessage("\\n<Samson>Then let's go on this adventure together! Behold my strength, for I am praised as 'Sabasa's Mighty Hammer'!")
    PictureClear(5)
    205(0,bytes(0x04,0x08,0x6f,0x3a,0x13,0x52,0x50,0x47,0x3a,0x3a,0x4d,0x6f,0x76,0x65,0x52,0x6f,0x75,0x74,0x65,0x09,0x3a,0x0c,0x40,0x72,0x65,0x70,0x65,0x61,0x74,0x46,0x3a,0x0f,0x40,0x73,0x6b,0x69,0x70,0x70,0x61,0x62,0x6c,0x65,0x46,0x3a,0x0a,0x40,0x77,0x61,0x69,0x74,0x54,0x3a,0x0a,0x40,0x6c,0x69,0x73,0x74,0x5b,0x09,0x6f,0x3a,0x15,0x52,0x50,0x47,0x3a,0x3a,0x4d,0x6f,0x76,0x65,0x43,0x6f,0x6d,0x6d,0x61,0x6e,0x64,0x07,0x3a,0x0a,0x40,0x63,0x6f,0x64,0x65,0x69,0x2a,0x3a,0x10,0x40,0x70,0x61,0x72,0x61,0x6d,0x65,0x74,0x65,0x72,0x73,0x5b,0x00,0x6f,0x3b,0x0a,0x07,0x3b,0x0b,0x69,0x0f,0x3b,0x0c,0x5b,0x00,0x6f,0x3b,0x0a,0x07,0x3b,0x0b,0x69,0x2c,0x3b,0x0c,0x5b,0x00,0x6f,0x3b,0x0a,0x07,0x3b,0x0b,0x69,0x00,0x3b,0x0c,0x5b,0x00))
    355("add_actor_ex(565)")
    249(bytes(0x04,0x08,0x6f,0x3a,0x0c,0x52,0x50,0x47,0x3a,0x3a,0x4d,0x45,0x08,0x3a,0x0a,0x40,0x6e,0x61,0x6d,0x65,0x49,0x22,0x0c,0x66,0x61,0x6e,0x66,0x61,0x6c,0x65,0x06,0x3a,0x06,0x45,0x54,0x3a,0x0b,0x40,0x70,0x69,0x74,0x63,0x68,0x69,0x69,0x3a,0x0c,0x40,0x76,0x6f,0x6c,0x75,0x6d,0x65,0x69,0x69))
    ShowMessageFace("",0,0,2,4)
    ShowMessage("Samson has joined the party!")
    Wait(60)
    EndEventProcessing()
    0()
   IfPlayerPicksChoice(1,null)
    ShowMessageFace("",0,0,2,5)
    ShowMessage("\\n<Samson>Oh. Well, then it can't be helped. Please take care of Lady Sara on your travels.")
    EndEventProcessing()
    0()
   404()
   0()
  EndIf()
  0()
 PAGE   2
  // condition: party contains actor #565
  0()



EVENT   11
 PAGE   1
  If(1,1028,0,7,2)
   ShowMessageFace("",0,0,2,1)
   ShowMessage("\\n<Chamberlain>This is Lady Sara's room. Guests are asked to keep to themselves.")
   EndEventProcessing()
   0()
  EndIf()
  If(1,1028,0,8,0)
   ShowMessageFace("",0,0,2,2)
   ShowMessage("\\n<Chamberlain>Lady Sara seems to prefer using this room over the king's room. Ahh, how tragic for her this must be.")
   355("actor_label_jump")
   EndEventProcessing()
   DefineLabel("529")
   ShowMessageFace("sara_fc1",4,0,2,3)
   ShowMessage("\\n<Sara>We will clean my Father's room only after we have found his body. ...That is what I decided would be most respectful to him.")
   EndEventProcessing()
   0()
  EndIf()
  0()




EVENT   12
 PAGE   1
  // condition: switch 32 is ON
  0()

EVENT   13
 PAGE   1
  250(bytes(0x04,0x08,0x6f,0x3a,0x0c,0x52,0x50,0x47,0x3a,0x3a,0x53,0x45,0x08,0x3a,0x0a,0x40,0x6e,0x61,0x6d,0x65,0x49,0x22,0x0a,0x49,0x74,0x65,0x6d,0x31,0x06,0x3a,0x06,0x45,0x54,0x3a,0x0b,0x40,0x70,0x69,0x74,0x63,0x68,0x69,0x69,0x3a,0x0c,0x40,0x76,0x6f,0x6c,0x75,0x6d,0x65,0x69,0x55))
  ChangeSelfSwitch("A",0)
  ChangeInventoryWeapon(94,0,0,1,false)
  0()
 PAGE   2
  // condition: self-switch A is ON
  0()



EVENT   14
 PAGE   1
  250(bytes(0x04,0x08,0x6f,0x3a,0x0c,0x52,0x50,0x47,0x3a,0x3a,0x53,0x45,0x08,0x3a,0x0a,0x40,0x6e,0x61,0x6d,0x65,0x49,0x22,0x0a,0x49,0x74,0x65,0x6d,0x31,0x06,0x3a,0x06,0x45,0x54,0x3a,0x0b,0x40,0x70,0x69,0x74,0x63,0x68,0x69,0x69,0x3a,0x0c,0x40,0x76,0x6f,0x6c,0x75,0x6d,0x65,0x69,0x55))
  ChangeSelfSwitch("A",0)
  ChangeInventoryArmor(1145,0,0,1,false)
  0()
 PAGE   2
  // condition: self-switch A is ON
  0()



EVENT   15
 PAGE   1
  // condition: variable 1028 >= 8
  If(1,1001,0,19,2)
   ShowMessageFace("",0,0,2,1)
   ShowMessage("\\n<Minister>Lady Sara's current political standing is unclear to most. But it's safe to say that she's the nation's current representative as the First Princess.")
   ShowMessageFace("",0,0,2,2)
   ShowMessage("\\n<Minister>Please continue to rule Sabasa until the elections for a true ruler are complete. Even after that, you still will be favored as the symbol of our country.")
   355("actor_label_jump")
   EndEventProcessing()
   DefineLabel("529")
   ShowMessageFace("sara_fc1",1,0,2,3)
   ShowMessage("\\n<Sara>I know. I won't be careless.")
   ShowMessageFace("",0,0,2,4)
   ShowMessage("\\n<Minister>No offense, but I think you\\*\\fi are\\*\\fi being careless. At any rate, we have accustomed ourselves to this during the previous king's era.")
   ShowMessageFace("",0,0,2,5)
   ShowMessage("\\n<Minister>...This just may be my opinion, but the king before him and his predecessor were similar to you in regards to carelessness. Is it hereditary?")
   EndEventProcessing()
   0()
  EndIf()
  If(1,1001,0,20,1)
   ShowMessageFace("",0,0,2,6)
   ShowMessage("【大臣】")
   ShowMessage("国民投票の結果、王制は存続する事が決まりました。")
   ShowMessage("サラ様は引き続き、女王位に就くという事になったのです。")
   ShowMessageFace("",0,0,2,7)
   ShowMessage("【大臣】")
   ShowMessage("サラ様は、王制の終結を決意していたのですが……")
   ShowMessage("やはり国民は、まだまだ女王が必要なのですよ。")
   EndEventProcessing()
   0()
  EndIf()
  0()



EVENT   16
 PAGE   1
  250(bytes(0x04,0x08,0x6f,0x3a,0x0c,0x52,0x50,0x47,0x3a,0x3a,0x53,0x45,0x08,0x3a,0x0a,0x40,0x6e,0x61,0x6d,0x65,0x49,0x22,0x0a,0x49,0x74,0x65,0x6d,0x31,0x06,0x3a,0x06,0x45,0x54,0x3a,0x0b,0x40,0x70,0x69,0x74,0x63,0x68,0x69,0x69,0x3a,0x0c,0x40,0x76,0x6f,0x6c,0x75,0x6d,0x65,0x69,0x55))
  ChangeSelfSwitch("A",0)
  ChangeInventory_Item(40,0,0,1)
  0()
 PAGE   2
  // condition: self-switch A is ON
  0()


