// EVENT 0051
Name "Skill: Play 111-120"

ChangeVariable(11,11,0,2,1,5)
If(1,100,0,111,0)
 If(1,11,0,1,0)
  ShowMessageFace("suika_fc1",0,0,2,1)
  ShowMessage("\\n<Melon>Watermelon is delicious.")
  ShowMessageFace("",0,0,2,2)
  ShowMessage("Melon is munching on watermelon.")
  EndEventProcessing()
  0()
 EndIf()
 If(1,11,0,2,0)
  ShowMessageFace("suika_fc1",2,0,2,3)
  ShowMessage("\\n<Melon>Beetles are sucking my watermelon juice!")
  250(bytes(0x04,0x08,0x6f,0x3a,0x0c,0x52,0x50,0x47,0x3a,0x3a,0x53,0x45,0x08,0x3a,0x0a,0x40,0x6e,0x61,0x6d,0x65,0x49,0x22,0x0a,0x49,0x74,0x65,0x6d,0x31,0x06,0x3a,0x06,0x45,0x54,0x3a,0x0b,0x40,0x70,0x69,0x74,0x63,0x68,0x69,0x69,0x3a,0x0c,0x40,0x76,0x6f,0x6c,0x75,0x6d,0x65,0x69,0x55))
  ChangeInventory_Item(448,0,0,1)
  ShowMessageFace("",0,0,2,4)
  ShowMessage("Melon caught some beetles.")
  ShowMessage("You obtain a [Beetle]!")
  EndEventProcessing()
  0()
 EndIf()
 If(1,11,0,3,0)
  ShowMessageFace("suika_fc1",1,0,2,5)
  ShowMessage("\\n<Melon>Ahahaa! Does it smell sweet?")
  355("interrupt_skill(2922)")
  EndEventProcessing()
  0()
 EndIf()
 If(1,11,0,4,0)
  ShowMessageFace("suika_fc1",1,0,2,6)
  ShowMessage("\\n<Melon>I am the queen of fruits because I am a watermelon!")
  ShowMessageFace("",0,0,2,7)
  ShowMessage("Melon makes a bold declaration!")
  ShowMessage("But no one was listening.")
  EndEventProcessing()
  0()
 EndIf()
 If(1,11,0,5,0)
  ShowMessageFace("suika_fc1",0,0,2,8)
  ShowMessage("\\n<Melon>Let's plant these watermelon seeds here. ♪")
  355("interrupt_skill(3299)")
  EndEventProcessing()
  0()
 EndIf()
 0()
EndIf()
If(1,100,0,112,0)
 If(1,11,0,1,0)
  ShowMessageFace("utubo_fc1",0,0,2,9)
  ShowMessage("\\n<Kazura>Delicious soup. ♪　Mushy soup. ♪ Melted prey is mushy mushy. ♪")
  ShowMessageFace("",0,0,2,10)
  ShowMessage("Kazura is making soup from her digestive juices.")
  EndEventProcessing()
  0()
 EndIf()
 If(1,11,0,2,0)
  ShowMessageFace("utubo_fc1",0,0,2,11)
  ShowMessage("\\n<Kazura>Attract them with a sweet smell. ♪")
  355("interrupt_skill(2922)")
  EndEventProcessing()
  0()
 EndIf()
 If(1,11,0,3,0)
  ShowMessageFace("utubo_fc1",0,0,2,12)
  ShowMessage("\\n<Kazura>I'll cover you, haa!")
  355("interrupt_skill(3308)")
  EndEventProcessing()
  0()
 EndIf()
 If(1,11,0,4,0)
  ShowMessageFace("utubo_fc1",0,0,2,13)
  ShowMessage("\\n<Kazura>It's a pitcher plant dance. ♪")
  ShowMessageFace("",0,0,2,14)
  ShowMessage("Kazura dances a fun dance!")
  ShowMessage("...But nothing happens.")
  EndEventProcessing()
  0()
 EndIf()
 If(1,11,0,5,0)
  ShowMessageFace("utubo_fc1",0,0,2,15)
  ShowMessage("\\n<Kazura>Here, this is a gift. ♪")
  ShowMessageFace("",0,0,2,16)
  ShowMessage("Kazura presents a gift.")
  250(bytes(0x04,0x08,0x6f,0x3a,0x0c,0x52,0x50,0x47,0x3a,0x3a,0x53,0x45,0x08,0x3a,0x0a,0x40,0x6e,0x61,0x6d,0x65,0x49,0x22,0x0a,0x49,0x74,0x65,0x6d,0x31,0x06,0x3a,0x06,0x45,0x54,0x3a,0x0b,0x40,0x70,0x69,0x74,0x63,0x68,0x69,0x69,0x3a,0x0c,0x40,0x76,0x6f,0x6c,0x75,0x6d,0x65,0x69,0x55))
  ChangeInventory_Item(448,0,0,1)
  ShowMessageFace("",0,0,2,17)
  ShowMessage("You obtain a [Beetle]!")
  EndEventProcessing()
  0()
 EndIf()
 0()
EndIf()
If(1,100,0,113,0)
 If(1,11,0,1,0)
  ShowMessageFace("lamia_fc1",0,0,2,18)
  ShowMessage("\\n<Anastasia>My nails hurt when I fight.")
  ShowMessageFace("",0,0,2,19)
  ShowMessage("Anastasia is trimming her nails.")
  EndEventProcessing()
  0()
 EndIf()
 If(1,11,0,2,0)
  ShowMessageFace("lamia_fc1",1,0,2,20)
  ShowMessage("\\n<Anastasia>It's a lamia dance. ♪")
  ShowMessageFace("",0,0,2,21)
  ShowMessage("Anastasia is happily singing and dancing.")
  EndEventProcessing()
  0()
 EndIf()
 If(1,11,0,3,0)
  ShowMessageFace("lamia_fc1",1,0,2,22)
  ShowMessage("\\n<Anastasia>'S'!!")
  ShowMessageFace("",0,0,2,23)
  ShowMessage("Anastasia made the letter 'S' with her body!")
  ShowMessage("...But nobody was watching.")
  EndEventProcessing()
  0()
 EndIf()
 If(1,11,0,4,0)
  ShowMessageFace("lamia_fc1",0,0,2,24)
  ShowMessage("\\n<Anastasia>I grew up in a high class family so I'm talented at sophisticated music.")
  ShowMessageFace("",0,0,2,25)
  ShowMessage("Anastasia begins to play the violin.")
  ShowMessage("Not bad, but no one was listening!")
  EndEventProcessing()
  0()
 EndIf()
 If(1,11,0,5,0)
  ShowMessageFace("lamia_fc1",0,0,2,26)
  ShowMessage("\\n<Anastasia>Wake me up in spring.")
  313(0,113,0,11)
  ShowMessageFace("",0,0,2,27)
  ShowMessage("Anastasia fell asleep!")
  ShowMessage("No, she's hibernating!")
  EndEventProcessing()
  0()
 EndIf()
 0()
EndIf()
If(1,100,0,114,0)
 If(1,11,0,1,0)
  ShowMessageFace("wakame_fc1",0,0,2,28)
  ShowMessage("\\n<Wakame>Seaweed sway sway... sway sway swaying...")
  ShowMessageFace("",0,0,2,29)
  ShowMessage("Wakame is swaying.")
  EndEventProcessing()
  0()
 EndIf()
 If(1,11,0,2,0)
  ShowMessageFace("wakame_fc1",0,0,2,30)
  ShowMessage("\\n<Wakame>Sway sway swaying... Seaweed dance.")
  355("interrupt_skill(2066)")
  EndEventProcessing()
  0()
 EndIf()
 If(1,11,0,3,0)
  ShowMessageFace("wakame_fc1",0,0,2,31)
  ShowMessage("\\n<Wakame>......")
  ShowMessageFace("",0,0,2,32)
  ShowMessage("Wakame seems to be thinking of something difficult.")
  EndEventProcessing()
  0()
 EndIf()
 If(1,11,0,4,0)
  ShowMessageFace("wakame_fc1",0,0,2,33)
  ShowMessage("\\n<Wakame>Seaweed, you can do it... Seaweed, fight...")
  ShowMessageFace("",0,0,2,34)
  ShowMessage("Wakame cheers for everyone!")
  ShowMessage("...But no one heard her.")
  EndEventProcessing()
  0()
 EndIf()
 If(1,11,0,5,0)
  ShowMessageFace("wakame_fc1",0,0,2,35)
  ShowMessage("\\n<Wakame>Seaweed sway sway... Sway sway swaying...")
  355("interrupt_skill(2032)")
  EndEventProcessing()
  0()
 EndIf()
 0()
EndIf()
If(1,100,0,115,0)
 If(1,11,0,1,0)
  ShowMessageFace("kurage_fc1",0,0,2,36)
  ShowMessage("\\n<Kurage>*Fidget*")
  ShowMessageFace("",0,0,2,37)
  ShowMessage("Kurage is confused.")
  EndEventProcessing()
  0()
 EndIf()
 If(1,11,0,2,0)
  ShowMessageFace("kurage_fc1",0,0,2,38)
  ShowMessage("\\n<Kurage>Fish...")
  ShowMessageFace("",0,0,2,39)
  ShowMessage("Kurage seems to have caught a fish.")
  250(bytes(0x04,0x08,0x6f,0x3a,0x0c,0x52,0x50,0x47,0x3a,0x3a,0x53,0x45,0x08,0x3a,0x0a,0x40,0x6e,0x61,0x6d,0x65,0x49,0x22,0x0a,0x49,0x74,0x65,0x6d,0x31,0x06,0x3a,0x06,0x45,0x54,0x3a,0x0b,0x40,0x70,0x69,0x74,0x63,0x68,0x69,0x69,0x3a,0x0c,0x40,0x76,0x6f,0x6c,0x75,0x6d,0x65,0x69,0x55))
  ChangeInventory_Item(322,0,0,1)
  ShowMessageFace("",0,0,2,40)
  ShowMessage("You obtain a [Fish]!")
  EndEventProcessing()
  0()
 EndIf()
 If(1,11,0,3,0)
  ShowMessageFace("kurage_fc1",0,0,2,41)
  ShowMessage("\\n<Kurage>Float, float...")
  ShowMessageFace("",0,0,2,42)
  ShowMessage("Kurage has spaced out.")
  EndEventProcessing()
  0()
 EndIf()
 If(1,11,0,4,0)
  ShowMessageFace("kurage_fc1",0,0,2,43)
  ShowMessage("\\n<Kurage>You can do it... You can do it...")
  ShowMessageFace("",0,0,2,44)
  ShowMessage("Kurage cheers for everyone!")
  ShowMessage("...But no one heard her.")
  EndEventProcessing()
  0()
 EndIf()
 If(1,11,0,5,0)
  ShowMessageFace("kurage_fc1",0,0,2,45)
  ShowMessage("\\n<Kurage>Dance...")
  ShowMessageFace("",0,0,2,46)
  ShowMessage("Kurage dances a strange dance!")
  ShowMessage("...But nothing happened.")
  EndEventProcessing()
  0()
 EndIf()
 0()
EndIf()
If(1,100,0,116,0)
 If(1,11,0,1,0)
  ShowMessageFace("iso_fc1",2,0,2,47)
  ShowMessage("\\n<Isabelle>Ahhh! Stung by my own tentacles?!")
  313(0,116,0,12)
  ShowMessageFace("",0,0,2,48)
  ShowMessage("Isabelle was paralyzed.")
  EndEventProcessing()
  0()
 EndIf()
 If(1,11,0,2,0)
  ShowMessageFace("iso_fc1",0,0,2,49)
  ShowMessage("\\n<Isabelle>I'm hungry. Are there no more fish?")
  ShowMessageFace("",0,0,2,50)
  ShowMessage("Isabelle is eating some food she stole.")
  EndEventProcessing()
  0()
 EndIf()
 If(1,11,0,3,0)
  ShowMessageFace("iso_fc1",0,0,2,51)
  ShowMessage("\\n<Isabelle>Ahhhh!")
  355("interrupt_skill(3292)")
  EndEventProcessing()
  0()
 EndIf()
 If(1,11,0,4,0)
  ShowMessageFace("iso_fc1",0,0,2,52)
  ShowMessage("\\n<Isabelle>This is a sea anemone dance!")
  ShowMessageFace("",0,0,2,53)
  ShowMessage("Isabelle dances a fun dance!")
  ShowMessage("...But nothing happened.")
  EndEventProcessing()
  0()
 EndIf()
 If(1,11,0,5,0)
  ShowMessageFace("iso_fc1",0,0,2,54)
  ShowMessage("\\n<Isabelle>Even if I am supposed to play, proper care is important.")
  ShowMessageFace("",0,0,2,55)
  ShowMessage("Isabelle is tending to her tentacles.")
  EndEventProcessing()
  0()
 EndIf()
 0()
EndIf()
If(1,100,0,117,0)
 If(1,11,0,1,0)
  ShowMessageFace("ankou_fc1",0,0,2,56)
  ShowMessage("\\n<Anko>......")
  ShowMessageFace("",0,0,2,57)
  ShowMessage("Anko is staring at her own illuminated lure.")
  EndEventProcessing()
  0()
 EndIf()
 If(1,11,0,2,0)
  ShowMessageFace("ankou_fc1",0,0,2,58)
  ShowMessage("\\n<Anko>Angler...")
  ShowMessageFace("",0,0,2,59)
  ShowMessage("Anko mutters something.")
  EndEventProcessing()
  0()
 EndIf()
 If(1,11,0,3,0)
  ShowMessageFace("ankou_fc1",0,0,2,60)
  ShowMessage("\\n<Anko>......")
  ShowMessageFace("",0,0,2,61)
  ShowMessage("Anko has spaced out.")
  EndEventProcessing()
  0()
 EndIf()
 If(1,11,0,4,0)
  ShowMessageFace("ankou_fc1",0,0,2,62)
  ShowMessage("\\n<Anko>.............?!")
  ShowMessageFace("",0,0,2,63)
  ShowMessage("Anko was surprised by something and is on a rampage!")
  355("interrupt_skill(2695)")
  EndEventProcessing()
  0()
 EndIf()
 If(1,11,0,5,0)
  ShowMessageFace("ankou_fc1",0,0,2,64)
  ShowMessage("\\n<Anko>......")
  ShowMessageFace("",0,0,2,65)
  ShowMessage("Anko is shaking a fin.")
  ShowMessage("...It seems to be a dance.")
  EndEventProcessing()
  0()
 EndIf()
 0()
EndIf()
If(1,100,0,118,0)
 If(1,11,0,1,0)
  ShowMessageFace("meia_fc1",0,0,2,66)
  ShowMessage("\\n<Meia>There... ♪")
  ShowMessageFace("",0,0,2,67)
  ShowMessage("Meia blows a kiss.")
  ShowMessage("...But nothing happened.")
  EndEventProcessing()
  0()
 EndIf()
 If(1,11,0,2,0)
  ShowMessageFace("meia_fc1",0,0,2,68)
  ShowMessage("\\n<Meia>Come on, dance with me. ♪")
  355("interrupt_skill(2033)")
  EndEventProcessing()
  0()
 EndIf()
 If(1,11,0,3,0)
  ShowMessageFace("meia_fc1",0,0,2,69)
  ShowMessage("\\n<Meia>Ufufuu, I'll sing. ♪")
  355("interrupt_skill(2080)")
  EndEventProcessing()
  0()
 EndIf()
 If(1,11,0,4,0)
  ShowMessageFace("meia_fc1",2,0,2,70)
  ShowMessage("\\n<Meia>I brought lunch for everyone. ♪")
  ShowMessageFace("",0,0,2,71)
  ShowMessage("Meia presents a gift!")
  250(bytes(0x04,0x08,0x6f,0x3a,0x0c,0x52,0x50,0x47,0x3a,0x3a,0x53,0x45,0x08,0x3a,0x0a,0x40,0x6e,0x61,0x6d,0x65,0x49,0x22,0x0a,0x49,0x74,0x65,0x6d,0x31,0x06,0x3a,0x06,0x45,0x54,0x3a,0x0b,0x40,0x70,0x69,0x74,0x63,0x68,0x69,0x69,0x3a,0x0c,0x40,0x76,0x6f,0x6c,0x75,0x6d,0x65,0x69,0x55))
  ChangeInventory_Item(437,0,0,1)
  ShowMessageFace("",0,0,2,72)
  ShowMessage("You obtain a [Grilled Starfish]!")
  EndEventProcessing()
  0()
 EndIf()
 If(1,11,0,5,0)
  ShowMessageFace("meia_fc1",1,0,2,73)
  ShowMessage("\\n<Meia>Ufufuu, I'm getting so turned on...")
  313(0,118,0,24)
  ShowMessageFace("",0,0,2,74)
  ShowMessage("Meia is having perverted thoughts.")
  ShowMessage("Meia has become horny!")
  EndEventProcessing()
  0()
 EndIf()
 0()
EndIf()
If(1,100,0,119,0)
 If(1,11,0,1,0)
  ShowMessageFace("page17_fc1",0,0,2,75)
  ShowMessage("\\n<Annie>......")
  ShowMessageFace("",0,0,2,76)
  ShowMessage("Annie is quietly reading a book.")
  EndEventProcessing()
  0()
 EndIf()
 If(1,11,0,2,0)
  ShowMessageFace("page17_fc1",0,0,2,77)
  ShowMessage("\\n<Annie>I made this meal.")
  ShowMessageFace("",0,0,2,78)
  ShowMessage("Annie presents a gift!")
  250(bytes(0x04,0x08,0x6f,0x3a,0x0c,0x52,0x50,0x47,0x3a,0x3a,0x53,0x45,0x08,0x3a,0x0a,0x40,0x6e,0x61,0x6d,0x65,0x49,0x22,0x0a,0x49,0x74,0x65,0x6d,0x31,0x06,0x3a,0x06,0x45,0x54,0x3a,0x0b,0x40,0x70,0x69,0x74,0x63,0x68,0x69,0x69,0x3a,0x0c,0x40,0x76,0x6f,0x6c,0x75,0x6d,0x65,0x69,0x55))
  ChangeInventory_Item(383,0,0,1)
  ShowMessageFace("",0,0,2,79)
  ShowMessage("You obtain a [Broiled Fish]!")
  EndEventProcessing()
  0()
 EndIf()
 If(1,11,0,3,0)
  ShowMessageFace("page17_fc1",0,0,2,80)
  ShowMessage("\\n<Annie>......")
  313(0,119,0,11)
  ShowMessageFace("",0,0,2,81)
  ShowMessage("Annie fell asleep.")
  EndEventProcessing()
  0()
 EndIf()
 If(1,11,0,4,0)
  ShowMessageFace("page17_fc1",0,0,2,82)
  ShowMessage("\\n<Annie>Smoking while reading a book is not allowed under any circumstances.")
  ShowMessageFace("",0,0,2,83)
  ShowMessage("Annie began to preach!")
  ShowMessage("...But nobody was listening.")
  EndEventProcessing()
  0()
 EndIf()
 If(1,11,0,5,0)
  ShowMessageFace("page17_fc1",0,0,2,84)
  ShowMessage("\\n<Annie>This page was torn...")
  250(bytes(0x04,0x08,0x6f,0x3a,0x0c,0x52,0x50,0x47,0x3a,0x3a,0x53,0x45,0x08,0x3a,0x0a,0x40,0x6e,0x61,0x6d,0x65,0x49,0x22,0x0a,0x49,0x74,0x65,0x6d,0x31,0x06,0x3a,0x06,0x45,0x54,0x3a,0x0b,0x40,0x70,0x69,0x74,0x63,0x68,0x69,0x69,0x3a,0x0c,0x40,0x76,0x6f,0x6c,0x75,0x6d,0x65,0x69,0x55))
  ChangeInventory_Item(109,0,0,1)
  ShowMessageFace("",0,0,2,85)
  ShowMessage("You obtain a [Grimoire Page]!")
  EndEventProcessing()
  0()
 EndIf()
 0()
EndIf()
If(1,100,0,120,0)
 If(1,11,0,1,0)
  ShowMessageFace("page257_fc1",0,0,2,86)
  ShowMessage("\\n<Yoko>......")
  ShowMessageFace("",0,0,2,87)
  ShowMessage("Yoko is quietly reading a book.")
  EndEventProcessing()
  0()
 EndIf()
 If(1,11,0,2,0)
  ShowMessageFace("page257_fc1",0,0,2,88)
  ShowMessage("\\n<Yoko>This page was torn, you can have it.")
  250(bytes(0x04,0x08,0x6f,0x3a,0x0c,0x52,0x50,0x47,0x3a,0x3a,0x53,0x45,0x08,0x3a,0x0a,0x40,0x6e,0x61,0x6d,0x65,0x49,0x22,0x0a,0x49,0x74,0x65,0x6d,0x31,0x06,0x3a,0x06,0x45,0x54,0x3a,0x0b,0x40,0x70,0x69,0x74,0x63,0x68,0x69,0x69,0x3a,0x0c,0x40,0x76,0x6f,0x6c,0x75,0x6d,0x65,0x69,0x55))
  ChangeInventory_Item(109,0,0,1)
  ShowMessageFace("",0,0,2,89)
  ShowMessage("You obtain a [Grimoire Page]!")
  EndEventProcessing()
  0()
 EndIf()
 If(1,11,0,3,0)
  ShowMessageFace("page257_fc1",0,0,2,90)
  ShowMessage("\\n<Yoko>I tried to cook but...")
  ShowMessageFace("",0,0,2,91)
  ShowMessage("Yoko presents a gift!")
  250(bytes(0x04,0x08,0x6f,0x3a,0x0c,0x52,0x50,0x47,0x3a,0x3a,0x53,0x45,0x08,0x3a,0x0a,0x40,0x6e,0x61,0x6d,0x65,0x49,0x22,0x0a,0x49,0x74,0x65,0x6d,0x31,0x06,0x3a,0x06,0x45,0x54,0x3a,0x0b,0x40,0x70,0x69,0x74,0x63,0x68,0x69,0x69,0x3a,0x0c,0x40,0x76,0x6f,0x6c,0x75,0x6d,0x65,0x69,0x55))
  ChangeInventory_Item(442,0,0,1)
  ShowMessageFace("",0,0,2,92)
  ShowMessage("You obtain a [Fish Bone]!")
  EndEventProcessing()
  0()
 EndIf()
 If(1,11,0,4,0)
  ShowMessageFace("page257_fc1",0,0,2,93)
  ShowMessage("\\n<Yoko>Let's read a sensual book... Oh, this is...")
  313(0,120,0,24)
  ShowMessageFace("",0,0,2,94)
  ShowMessage("Yoko is having perverted thoughts.")
  ShowMessage("Yoko has become horny!")
  EndEventProcessing()
  0()
 EndIf()
 If(1,11,0,5,0)
  ShowMessageFace("page257_fc1",0,0,2,95)
  ShowMessage("\\n<Yoko>Come on, let's party!")
  ShowMessageFace("",0,0,2,96)
  ShowMessage("Yoko popped a party popper!")
  ShowMessage("...But nobody joined the party.")
  EndEventProcessing()
  0()
 EndIf()
 0()
EndIf()
0()
